{
    "pagination": {
        "count": 47526,
        "next": "https://v3/committee-report?conference=false&offset=20&limit=20&format=json"
    },
    "reports": [
        {
            "chamber": "House",
            "citation": "H. Rept. 17-107",
            "congress": 17,
            "number": 107,
            "part": 1,
            "type": "HRPT",
            "updateDate": "2021-12-22 10:26:46+00:00",
            "url": "https://v3/committee-report/17/HRPT/107?format=json"
        },
        {
            "chamber": "House",
            "citation": "H. Rept. 17-105",
            "congress": 17,
            "number": 105,
            "part": 1,
            "type": "HRPT",
            "updateDate": "2021-12-22 10:26:46+00:00",
            "url": "https://v3/committee-report/17/HRPT/105?format=json"
        },
        {
            "chamber": "House",
            "citation": "H. Rept. 17-94",
            "congress": 17,
            "number": 94,
            "part": 1,
            "type": "HRPT",
            "updateDate": "2021-12-22 10:26:46+00:00",
            "url": "https://v3/committee-report/17/HRPT/94?format=json"
        },
        {
            "chamber": "House",
            "citation": "H. Rept. 17-69",
            "congress": 17,
            "number": 69,
            "part": 1,
            "type": "HRPT",
            "updateDate": "2021-12-22 10:26:46+00:00",
            "url": "https://v3/committee-report/17/HRPT/69?format=json"
        },
        {
            "chamber": "House",
            "citation": "H. Rept. 17-68",
            "congress": 17,
            "number": 68,
            "part": 1,
            "type": "HRPT",
            "updateDate": "2021-12-22 10:26:46+00:00",
            "url": "https://v3/committee-report/17/HRPT/68?format=json"
        },
        {
            "chamber": "House",
            "citation": "H. Rept. 17-67",
            "congress": 17,
            "number": 67,
            "part": 1,
            "type": "HRPT",
            "updateDate": "2021-12-22 10:26:46+00:00",
            "url": "https://v3/committee-report/17/HRPT/67?format=json"
        },
        {
            "chamber": "House",
            "citation": "H. Rept. 17-66",
            "congress": 17,
            "number": 66,
            "part": 1,
            "type": "HRPT",
            "updateDate": "2021-12-22 10:26:46+00:00",
            "url": "https://v3/committee-report/17/HRPT/66?format=json"
        },
        {
            "chamber": "House",
            "citation": "H. Rept. 17-65",
            "congress": 17,
            "number": 65,
            "part": 1,
            "type": "HRPT",
            "updateDate": "2021-12-22 10:26:46+00:00",
            "url": "https://v3/committee-report/17/HRPT/65?format=json"
        },
        {
            "chamber": "House",
            "citation": "H. Rept. 17-64",
            "congress": 17,
            "number": 64,
            "part": 1,
            "type": "HRPT",
            "updateDate": "2021-12-22 10:26:46+00:00",
            "url": "https://v3/committee-report/17/HRPT/64?format=json"
        },
        {
            "chamber": "House",
            "citation": "H. Rept. 17-63",
            "congress": 17,
            "number": 63,
            "part": 1,
            "type": "HRPT",
            "updateDate": "2021-12-22 10:26:46+00:00",
            "url": "https://v3/committee-report/17/HRPT/63?format=json"
        },
        {
            "chamber": "House",
            "citation": "H. Rept. 17-62",
            "congress": 17,
            "number": 62,
            "part": 1,
            "type": "HRPT",
            "updateDate": "2021-12-22 10:26:46+00:00",
            "url": "https://v3/committee-report/17/HRPT/62?format=json"
        },
        {
            "chamber": "House",
            "citation": "H. Rept. 17-61",
            "congress": 17,
            "number": 61,
            "part": 1,
            "type": "HRPT",
            "updateDate": "2021-12-22 10:26:46+00:00",
            "url": "https://v3/committee-report/17/HRPT/61?format=json"
        },
        {
            "chamber": "House",
            "citation": "H. Rept. 17-60",
            "congress": 17,
            "number": 60,
            "part": 1,
            "type": "HRPT",
            "updateDate": "2021-12-22 10:26:46+00:00",
            "url": "https://v3/committee-report/17/HRPT/60?format=json"
        },
        {
            "chamber": "House",
            "citation": "H. Rept. 17-59",
            "congress": 17,
            "number": 59,
            "part": 1,
            "type": "HRPT",
            "updateDate": "2021-12-22 10:26:46+00:00",
            "url": "https://v3/committee-report/17/HRPT/59?format=json"
        },
        {
            "chamber": "House",
            "citation": "H. Rept. 17-58",
            "congress": 17,
            "number": 58,
            "part": 1,
            "type": "HRPT",
            "updateDate": "2021-12-22 10:26:46+00:00",
            "url": "https://v3/committee-report/17/HRPT/58?format=json"
        },
        {
            "chamber": "House",
            "citation": "H. Rept. 17-57",
            "congress": 17,
            "number": 57,
            "part": 1,
            "type": "HRPT",
            "updateDate": "2021-12-22 10:26:46+00:00",
            "url": "https://v3/committee-report/17/HRPT/57?format=json"
        },
        {
            "chamber": "House",
            "citation": "H. Rept. 17-56",
            "congress": 17,
            "number": 56,
            "part": 1,
            "type": "HRPT",
            "updateDate": "2021-12-22 10:26:46+00:00",
            "url": "https://v3/committee-report/17/HRPT/56?format=json"
        },
        {
            "chamber": "House",
            "citation": "H. Rept. 17-55",
            "congress": 17,
            "number": 55,
            "part": 1,
            "type": "HRPT",
            "updateDate": "2021-12-22 10:26:50+00:00",
            "url": "https://v3/committee-report/17/HRPT/55?format=json"
        },
        {
            "chamber": "House",
            "citation": "H. Rept. 17-54",
            "congress": 17,
            "number": 54,
            "part": 1,
            "type": "HRPT",
            "updateDate": "2021-12-22 10:26:49+00:00",
            "url": "https://v3/committee-report/17/HRPT/54?format=json"
        },
        {
            "chamber": "House",
            "citation": "H. Rept. 17-53",
            "congress": 17,
            "number": 53,
            "part": 1,
            "type": "HRPT",
            "updateDate": "2021-12-22 10:26:49+00:00",
            "url": "https://v3/committee-report/17/HRPT/53?format=json"
        }
    ],
    "request": {
        "contentType": "application/json",
        "format": "json"
    }
}
