{
    "members": [
        {
            "bioguideId": "C001078",
            "depiction": {
                "attribution": "Image courtesy of the Member",
                "imageUrl": "https://www.congress.gov/img/member/c001078_200.jpg"
            },
            "district": 11,
            "name": "Connolly, Gerald E.",
            "partyName": "Democratic",
            "state": "Virginia",
            "terms": {
                "item": [
                    {
                        "chamber": "House of Representatives",
                        "endYear": 2025,
                        "startYear": 2009
                    }
                ]
            },
            "updateDate": "2025-05-21T13:36:20Z",
            "url": "https://v3/member/C001078?format=json"
        },
        {
            "bioguideId": "M001242",
            "depiction": {
                "attribution": "Official U.S. Senate Photo",
                "imageUrl": "https://www.congress.gov/img/member/67c8694e6159152e59828afb_200.jpg"
            },
            "name": "Moreno, Bernie",
            "partyName": "Republican",
            "state": "Ohio",
            "terms": {
                "item": [
                    {
                        "chamber": "Senate",
                        "startYear": 2025
                    }
                ]
            },
            "updateDate": "2025-05-17T10:30:27Z",
            "url": "https://v3/member/M001242?format=json"
        },
        {
            "bioguideId": "B000611",
            "depiction": {
                "attribution": "<a href=\"http://www.senate.gov/artandhistory/history/common/generic/Photo_Collection_of_the_Senate_Historical_Office.htm\">Courtesy U.S. Senate Historical Office<\/a>",
                "imageUrl": "https://www.congress.gov/img/member/b000611_200.jpg"
            },
            "name": "Bond, Christopher S.",
            "partyName": "Republican",
            "state": "Missouri",
            "terms": {
                "item": [
                    {
                        "chamber": "Senate",
                        "endYear": 2011,
                        "startYear": 1987
                    }
                ]
            },
            "updateDate": "2025-05-14T12:56:30Z",
            "url": "https://v3/member/B000611?format=json"
        },
        {
            "bioguideId": "M001229",
            "depiction": {
                "attribution": "Image courtesy of the Member",
                "imageUrl": "https://www.congress.gov/img/member/681dfed94fc893ce843e24b8_200.jpg"
            },
            "district": 10,
            "name": "McIver, LaMonica",
            "partyName": "Democratic",
            "state": "New Jersey",
            "terms": {
                "item": [
                    {
                        "chamber": "House of Representatives",
                        "startYear": 2024
                    }
                ]
            },
            "updateDate": "2025-05-09T13:45:32Z",
            "url": "https://v3/member/M001229?format=json"
        },
        {
            "bioguideId": "H001085",
            "depiction": {
                "attribution": "Image courtesy of the Member",
                "imageUrl": "https://www.congress.gov/img/member/681bc0e6b763f94d6e471f50_200.jpg"
            },
            "district": 6,
            "name": "Houlahan, Chrissy",
            "partyName": "Democratic",
            "state": "Pennsylvania",
            "terms": {
                "item": [
                    {
                        "chamber": "House of Representatives",
                        "startYear": 2019
                    }
                ]
            },
            "updateDate": "2025-05-08T13:36:39Z",
            "url": "https://v3/member/H001085?format=json"
        },
        {
            "bioguideId": "M001244",
            "name": "Moody, Ashley",
            "partyName": "Republican",
            "state": "Florida",
            "terms": {
                "item": [
                    {
                        "chamber": "Senate",
                        "startYear": 2025
                    }
                ]
            },
            "updateDate": "2025-05-07T10:42:23Z",
            "url": "https://v3/member/M001244?format=json"
        },
        {
            "bioguideId": "M000566",
            "depiction": {
                "attribution": "Collection of the U.S. House of Representatives",
                "imageUrl": "https://www.congress.gov/img/member/m000566_200.jpg"
            },
            "district": 9,
            "name": "McMillan, J. Alex",
            "partyName": "Republican",
            "state": "North Carolina",
            "terms": {
                "item": [
                    {
                        "chamber": "House of Representatives",
                        "endYear": 1995,
                        "startYear": 1985
                    }
                ]
            },
            "updateDate": "2025-05-06T11:16:14Z",
            "url": "https://v3/member/M000566?format=json"
        },
        {
            "bioguideId": "S001101",
            "depiction": {
                "attribution": "Collection of the U.S. House of Representatives",
                "imageUrl": "https://www.congress.gov/img/member/s001101_200.jpg"
            },
            "district": 14,
            "name": "Sweeney, David McCann",
            "partyName": "Republican",
            "state": "Texas",
            "terms": {
                "item": [
                    {
                        "chamber": "House of Representatives",
                        "endYear": 1989,
                        "startYear": 1985
                    }
                ]
            },
            "updateDate": "2025-05-05T18:04:01Z",
            "url": "https://v3/member/S001101?format=json"
        },
        {
            "bioguideId": "F000116",
            "depiction": {
                "attribution": "Collection of the U.S. House of Representatives",
                "imageUrl": "https://www.congress.gov/img/member/f000116_200.jpg"
            },
            "district": 51,
            "name": "Filner, Bob",
            "partyName": "Democratic",
            "state": "California",
            "terms": {
                "item": [
                    {
                        "chamber": "House of Representatives",
                        "endYear": 2013,
                        "startYear": 1993
                    }
                ]
            },
            "updateDate": "2025-05-02T17:09:53Z",
            "url": "https://v3/member/F000116?format=json"
        },
        {
            "bioguideId": "M001226",
            "depiction": {
                "attribution": "Image courtesy of the Member",
                "imageUrl": "https://www.congress.gov/img/member/681231f6246d1b6bd8d9f6b4_200.jpg"
            },
            "district": 8,
            "name": "Menendez, Robert",
            "partyName": "Democratic",
            "state": "New Jersey",
            "terms": {
                "item": [
                    {
                        "chamber": "House of Representatives",
                        "startYear": 2023
                    }
                ]
            },
            "updateDate": "2025-04-30T18:14:58Z",
            "url": "https://v3/member/M001226?format=json"
        },
        {
            "bioguideId": "F000477",
            "depiction": {
                "attribution": "Image courtesy of the Member",
                "imageUrl": "https://www.congress.gov/img/member/68122e57246d1b6bd8d9f6ab_200.jpg"
            },
            "district": 4,
            "name": "Foushee, Valerie P.",
            "partyName": "Democratic",
            "state": "North Carolina",
            "terms": {
                "item": [
                    {
                        "chamber": "House of Representatives",
                        "startYear": 2023
                    }
                ]
            },
            "updateDate": "2025-04-30T14:39:33Z",
            "url": "https://v3/member/F000477?format=json"
        },
        {
            "bioguideId": "T000488",
            "depiction": {
                "attribution": "Image courtesy of the Member",
                "imageUrl": "https://www.congress.gov/img/member/68122bf2246d1b6bd8d9f6a2_200.jpg"
            },
            "district": 13,
            "name": "Thanedar, Shri",
            "partyName": "Democratic",
            "state": "Michigan",
            "terms": {
                "item": [
                    {
                        "chamber": "House of Representatives",
                        "startYear": 2023
                    }
                ]
            },
            "updateDate": "2025-04-30T14:37:55Z",
            "url": "https://v3/member/T000488?format=json"
        },
        {
            "bioguideId": "P000622",
            "depiction": {
                "attribution": "Image courtesy of the Member",
                "imageUrl": "https://www.congress.gov/img/member/67efdb991b05a5a598f7fde9_200.jpg"
            },
            "district": 1,
            "name": "Patronis, Jimmy",
            "partyName": "Republican",
            "state": "Florida",
            "terms": {
                "item": [
                    {
                        "chamber": "House of Representatives",
                        "startYear": 2025
                    }
                ]
            },
            "updateDate": "2025-04-28T13:06:19Z",
            "url": "https://v3/member/P000622?format=json"
        },
        {
            "bioguideId": "F000484",
            "depiction": {
                "attribution": "Image courtesy of the Member",
                "imageUrl": "https://www.congress.gov/img/member/67efda8c1b05a5a598f7fde0_200.jpg"
            },
            "district": 6,
            "name": "Fine, Randy",
            "partyName": "Republican",
            "state": "Florida",
            "terms": {
                "item": [
                    {
                        "chamber": "House of Representatives",
                        "startYear": 2025
                    }
                ]
            },
            "updateDate": "2025-04-28T13:06:19Z",
            "url": "https://v3/member/F000484?format=json"
        },
        {
            "bioguideId": "S001221",
            "depiction": {
                "attribution": "Image courtesy of the Member",
                "imageUrl": "https://www.congress.gov/img/member/s001221_200.jpg"
            },
            "district": 3,
            "name": "Scholten, Hillary J.",
            "partyName": "Democratic",
            "state": "Michigan",
            "terms": {
                "item": [
                    {
                        "chamber": "House of Representatives",
                        "startYear": 2023
                    }
                ]
            },
            "updateDate": "2025-04-28T13:06:18Z",
            "url": "https://v3/member/S001221?format=json"
        },
        {
            "bioguideId": "J000299",
            "depiction": {
                "attribution": "Image courtesy of the Member",
                "imageUrl": "https://www.congress.gov/img/member/67ffcb2af22eaf56065817c4_200.jpg"
            },
            "district": 4,
            "name": "Johnson, Mike",
            "partyName": "Republican",
            "state": "Louisiana",
            "terms": {
                "item": [
                    {
                        "chamber": "House of Representatives",
                        "startYear": 2017
                    }
                ]
            },
            "updateDate": "2025-04-28T13:05:21Z",
            "url": "https://v3/member/J000299?format=json"
        },
        {
            "bioguideId": "R000621",
            "depiction": {
                "attribution": "Image courtesy of the Member",
                "imageUrl": "https://www.congress.gov/img/member/67745dcf0b34857ecc909173_200.jpg"
            },
            "district": 6,
            "name": "Randall, Emily",
            "partyName": "Democratic",
            "state": "Washington",
            "terms": {
                "item": [
                    {
                        "chamber": "House of Representatives",
                        "startYear": 2025
                    }
                ]
            },
            "updateDate": "2025-04-28T13:04:28Z",
            "url": "https://v3/member/R000621?format=json"
        },
        {
            "bioguideId": "M001235",
            "depiction": {
                "attribution": "Image courtesy of the Member",
                "imageUrl": "https://www.congress.gov/img/member/677449fd0b34857ecc909131_200.jpg"
            },
            "district": 2,
            "name": "Moore, Riley M.",
            "partyName": "Republican",
            "state": "West Virginia",
            "terms": {
                "item": [
                    {
                        "chamber": "House of Representatives",
                        "startYear": 2025
                    }
                ]
            },
            "updateDate": "2025-04-28T13:04:28Z",
            "url": "https://v3/member/M001235?format=json"
        },
        {
            "bioguideId": "B001322",
            "depiction": {
                "attribution": "Image courtesy of the Member",
                "imageUrl": "https://www.congress.gov/img/member/6774212e0b34857ecc90903a_200.jpg"
            },
            "district": 5,
            "name": "Baumgartner, Michael",
            "partyName": "Republican",
            "state": "Washington",
            "terms": {
                "item": [
                    {
                        "chamber": "House of Representatives",
                        "startYear": 2025
                    }
                ]
            },
            "updateDate": "2025-04-28T13:04:28Z",
            "url": "https://v3/member/B001322?format=json"
        }
    ],
    "pagination": {
        "count": 2598,
        "next": "https://v3/member?currentMember=FALSE&offset=20&limit=20&format=json"
    },
    "request": {
        "contentType": "application/json",
        "format": "json"
    }
}
