{
    "members": [
        {
            "bioguideId": "K000305",
            "depiction": {
                "attribution": "<a href=\"http://www.senate.gov/artandhistory/history/common/generic/Photo_Collection_of_the_Senate_Historical_Office.htm\">Courtesy U.S. Senate Historical Office<\/a>",
                "imageUrl": "https://www.congress.gov/img/member/k000305_200.jpg"
            },
            "name": "Kohl, Herb",
            "partyName": "Democratic",
            "state": "Wisconsin",
            "terms": {
                "item": [
                    {
                        "chamber": "Senate",
                        "endYear": 2013,
                        "startYear": 1989
                    }
                ]
            },
            "updateDate": "2023-12-29T16:41:29Z",
            "url": "https://v3/member/K000305?format=json"
        },
        {
            "bioguideId": "H000392",
            "depiction": {
                "attribution": "Collection of the U.S. House of Representatives",
                "imageUrl": "https://www.congress.gov/img/member/h000392_200.jpg"
            },
            "district": 8,
            "name": "Hayes, Philip H.",
            "partyName": "Democratic",
            "state": "Indiana",
            "terms": {
                "item": [
                    {
                        "chamber": "House of Representatives",
                        "endYear": 1977,
                        "startYear": 1975
                    }
                ]
            },
            "updateDate": "2023-12-29T16:38:49Z",
            "url": "https://v3/member/H000392?format=json"
        },
        {
            "bioguideId": "M001228",
            "depiction": {
                "attribution": "Image courtesy of the Member",
                "imageUrl": "https://www.congress.gov/img/member/m001228_200.jpg"
            },
            "district": 2,
            "name": "Maloy, Celeste",
            "partyName": "Republican",
            "state": "Utah",
            "terms": {
                "item": [
                    {
                        "chamber": "House of Representatives",
                        "startYear": 2023
                    }
                ]
            },
            "updateDate": "2023-12-22T15:39:46Z",
            "url": "https://v3/member/M001228?format=json"
        },
        {
            "bioguideId": "P000145",
            "depiction": {
                "attribution": "<a href=\"http://www.senate.gov/artandhistory/history/common/generic/Photo_Collection_of_the_Senate_Historical_Office.htm\">Courtesy U.S. Senate Historical Office<\/a>",
                "imageUrl": "https://www.congress.gov/img/member/p000145_200.jpg"
            },
            "name": "Padilla, Alex",
            "partyName": "Democratic",
            "state": "California",
            "terms": {
                "item": [
                    {
                        "chamber": "Senate",
                        "startYear": 2021
                    }
                ]
            },
            "updateDate": "2023-12-21T13:42:20Z",
            "url": "https://v3/member/P000145?format=json"
        },
        {
            "bioguideId": "A000380",
            "depiction": {
                "attribution": "Image courtesy of the Member",
                "imageUrl": "https://www.congress.gov/img/member/a000380_200.jpg"
            },
            "district": 1,
            "name": "Amo, Gabe",
            "partyName": "Democratic",
            "state": "Rhode Island",
            "terms": {
                "item": [
                    {
                        "chamber": "House of Representatives",
                        "startYear": 2023
                    }
                ]
            },
            "updateDate": "2023-12-11T16:12:15Z",
            "url": "https://v3/member/A000380?format=json"
        },
        {
            "bioguideId": "S001222",
            "depiction": {
                "attribution": "Image courtesy of the Member",
                "imageUrl": "https://www.congress.gov/img/member/s001222_200.jpg"
            },
            "district": 3,
            "name": "Santos, George",
            "partyName": "Republican",
            "state": "New York",
            "terms": {
                "item": [
                    {
                        "chamber": "House of Representatives",
                        "endYear": 2023,
                        "startYear": 2023
                    }
                ]
            },
            "updateDate": "2023-12-04T12:01:15Z",
            "url": "https://v3/member/S001222?format=json"
        },
        {
            "bioguideId": "Z000018",
            "depiction": {
                "attribution": "Collection of the U.S. House of Representatives",
                "imageUrl": "https://www.congress.gov/img/member/117_rp_mt_1_zinke_ryan_200.jpg"
            },
            "district": 1,
            "name": "Zinke, Ryan K.",
            "partyName": "Republican",
            "state": "Montana",
            "terms": {
                "item": [
                    {
                        "chamber": "House of Representatives",
                        "endYear": 2017,
                        "startYear": 2015
                    },
                    {
                        "chamber": "House of Representatives",
                        "startYear": 2023
                    }
                ]
            },
            "updateDate": "2023-11-28T14:33:28Z",
            "url": "https://v3/member/Z000018?format=json"
        },
        {
            "bioguideId": "K000262",
            "depiction": {
                "attribution": "Collection of the U.S. House of Representatives",
                "imageUrl": "https://www.congress.gov/img/member/k000262_200.jpg"
            },
            "district": 8,
            "name": "Klein, Herbert C.",
            "partyName": "Democratic",
            "state": "New Jersey",
            "terms": {
                "item": [
                    {
                        "chamber": "House of Representatives",
                        "endYear": 1995,
                        "startYear": 1993
                    }
                ]
            },
            "updateDate": "2023-11-27T15:24:44Z",
            "url": "https://v3/member/K000262?format=json"
        },
        {
            "bioguideId": "J000148",
            "depiction": {
                "attribution": "Collection of the U.S. House of Representatives",
                "imageUrl": "https://www.congress.gov/img/member/j000148_200.jpg"
            },
            "district": 4,
            "name": "Johnson, James P. (Jim)",
            "partyName": "Republican",
            "state": "Colorado",
            "terms": {
                "item": [
                    {
                        "chamber": "House of Representatives",
                        "endYear": 1981,
                        "startYear": 1973
                    }
                ]
            },
            "updateDate": "2023-11-22T17:32:53Z",
            "url": "https://v3/member/J000148?format=json"
        },
        {
            "bioguideId": "B001320",
            "depiction": {
                "attribution": "Image courtesy of the Senator",
                "imageUrl": "https://www.congress.gov/img/member/b001320_200.jpg"
            },
            "name": "Butler, Laphonza R.",
            "partyName": "Democratic",
            "state": "California",
            "terms": {
                "item": [
                    {
                        "chamber": "Senate",
                        "startYear": 2023
                    }
                ]
            },
            "updateDate": "2023-11-17T14:40:36Z",
            "url": "https://v3/member/B001320?format=json"
        },
        {
            "bioguideId": "L000570",
            "depiction": {
                "attribution": "Image courtesy of the Member",
                "imageUrl": "https://www.congress.gov/img/member/l000570_200.jpg"
            },
            "name": "Lujan, Ben Ray",
            "partyName": "Democratic",
            "state": "New Mexico",
            "terms": {
                "item": [
                    {
                        "chamber": "House of Representatives",
                        "endYear": 2021,
                        "startYear": 2009
                    },
                    {
                        "chamber": "Senate",
                        "startYear": 2021
                    }
                ]
            },
            "updateDate": "2023-11-17T13:42:37Z",
            "url": "https://v3/member/L000570?format=json"
        },
        {
            "bioguideId": "B000556",
            "depiction": {
                "attribution": "Collection of the U.S. House of Representatives <a href=\"http://history.house.gov/Collection/Detail/29091?ret=True\">About this object<\/a>",
                "imageUrl": "https://www.congress.gov/img/member/b000556_200.jpg"
            },
            "district": 7,
            "name": "Bliley, Tom",
            "partyName": "Republican",
            "state": "Virginia",
            "terms": {
                "item": [
                    {
                        "chamber": "House of Representatives",
                        "endYear": 2001,
                        "startYear": 1981
                    }
                ]
            },
            "updateDate": "2023-11-17T13:32:49Z",
            "url": "https://v3/member/B000556?format=json"
        },
        {
            "bioguideId": "J000288",
            "depiction": {
                "attribution": "Image courtesy of the Member",
                "imageUrl": "https://www.congress.gov/img/member/j000288_200.jpg"
            },
            "district": 4,
            "name": "Johnson, Henry C. \"Hank,\" Jr.",
            "partyName": "Democratic",
            "state": "Georgia",
            "terms": {
                "item": [
                    {
                        "chamber": "House of Representatives",
                        "startYear": 2007
                    }
                ]
            },
            "updateDate": "2023-11-07T13:57:31Z",
            "url": "https://v3/member/J000288?format=json"
        },
        {
            "bioguideId": "W000802",
            "depiction": {
                "attribution": "<a href=\"http://www.senate.gov/artandhistory/history/common/generic/Photo_Collection_of_the_Senate_Historical_Office.htm\">Courtesy U.S. Senate Historical Office<\/a>",
                "imageUrl": "https://www.congress.gov/img/member/w000802_200.jpg"
            },
            "name": "Whitehouse, Sheldon",
            "partyName": "Democratic",
            "state": "Rhode Island",
            "terms": {
                "item": [
                    {
                        "chamber": "Senate",
                        "startYear": 2007
                    }
                ]
            },
            "updateDate": "2023-11-06T13:42:38Z",
            "url": "https://v3/member/W000802?format=json"
        },
        {
            "bioguideId": "Y000064",
            "depiction": {
                "attribution": "Image courtesy of the Member",
                "imageUrl": "https://www.congress.gov/img/member/y000064_200.jpg"
            },
            "name": "Young, Todd",
            "partyName": "Republican",
            "state": "Indiana",
            "terms": {
                "item": [
                    {
                        "chamber": "House of Representatives",
                        "endYear": 2017,
                        "startYear": 2011
                    },
                    {
                        "chamber": "Senate",
                        "startYear": 2017
                    }
                ]
            },
            "updateDate": "2023-11-06T13:42:38Z",
            "url": "https://v3/member/Y000064?format=json"
        },
        {
            "bioguideId": "W000779",
            "depiction": {
                "attribution": "<a href=\"http://www.senate.gov/artandhistory/history/common/generic/Photo_Collection_of_the_Senate_Historical_Office.htm\">Courtesy U.S. Senate Historical Office<\/a>",
                "imageUrl": "https://www.congress.gov/img/member/w000779_200.jpg"
            },
            "name": "Wyden, Ron",
            "partyName": "Democratic",
            "state": "Oregon",
            "terms": {
                "item": [
                    {
                        "chamber": "House of Representatives",
                        "endYear": 1996,
                        "startYear": 1981
                    },
                    {
                        "chamber": "Senate",
                        "startYear": 1996
                    }
                ]
            },
            "updateDate": "2023-11-06T13:42:38Z",
            "url": "https://v3/member/W000779?format=json"
        },
        {
            "bioguideId": "W000437",
            "depiction": {
                "attribution": "<a href=\"http://www.senate.gov/artandhistory/history/common/generic/Photo_Collection_of_the_Senate_Historical_Office.htm\">Courtesy U.S. Senate Historical Office<\/a>",
                "imageUrl": "https://www.congress.gov/img/member/w000437_200.jpg"
            },
            "name": "Wicker, Roger F.",
            "partyName": "Republican",
            "state": "Mississippi",
            "terms": {
                "item": [
                    {
                        "chamber": "House of Representatives",
                        "endYear": 2007,
                        "startYear": 1995
                    },
                    {
                        "chamber": "Senate",
                        "startYear": 2007
                    }
                ]
            },
            "updateDate": "2023-11-06T13:42:38Z",
            "url": "https://v3/member/W000437?format=json"
        },
        {
            "bioguideId": "V000137",
            "depiction": {
                "attribution": "Official U.S. Senate Photo",
                "imageUrl": "https://www.congress.gov/img/member/v000137_200.jpg"
            },
            "name": "Vance, J. D.",
            "partyName": "Republican",
            "state": "Ohio",
            "terms": {
                "item": [
                    {
                        "chamber": "Senate",
                        "startYear": 2023
                    }
                ]
            },
            "updateDate": "2023-11-06T13:42:37Z",
            "url": "https://v3/member/V000137?format=json"
        },
        {
            "bioguideId": "W000790",
            "depiction": {
                "attribution": "<a href=\"http://www.senate.gov/artandhistory/history/common/generic/Photo_Collection_of_the_Senate_Historical_Office.htm\">Courtesy U.S. Senate Historical Office<\/a>",
                "imageUrl": "https://www.congress.gov/img/member/w000790_200.jpg"
            },
            "name": "Warnock, Raphael G.",
            "partyName": "Democratic",
            "state": "Georgia",
            "terms": {
                "item": [
                    {
                        "chamber": "Senate",
                        "startYear": 2021
                    }
                ]
            },
            "updateDate": "2023-11-06T13:42:37Z",
            "url": "https://v3/member/W000790?format=json"
        },
        {
            "bioguideId": "W000817",
            "depiction": {
                "attribution": "<a href=\"http://www.senate.gov/artandhistory/history/common/generic/Photo_Collection_of_the_Senate_Historical_Office.htm\">Courtesy U.S. Senate Historical Office<\/a>",
                "imageUrl": "https://www.congress.gov/img/member/w000817_200.jpg"
            },
            "name": "Warren, Elizabeth",
            "partyName": "Democratic",
            "state": "Massachusetts",
            "terms": {
                "item": [
                    {
                        "chamber": "Senate",
                        "startYear": 2013
                    }
                ]
            },
            "updateDate": "2023-11-06T13:42:37Z",
            "url": "https://v3/member/W000817?format=json"
        }
    ],
    "pagination": {
        "count": 2518,
        "next": "https://v3/member?offset=20&limit=20&format=json"
    },
    "request": {
        "contentType": "application/json",
        "format": "json"
    }
}
