{
    "pagination": {
        "count": 46789,
        "next": "https://api.congress.gov/congress/v3/committeeReport?conference=false&offset=20&limit=20&format=json"
    },
    "reports": [
        {
            "citation": "H. Rept. 17-107",
            "updateDate": "2021-12-22 10:26:46+00:00",
            "url": "https://api.congress.gov/v3/committeeReport/17/HRPT/107?format=json"
        },
        {
            "citation": "H. Rept. 17-105",
            "updateDate": "2021-12-22 10:26:46+00:00",
            "url": "https://api.congress.gov/v3/committeeReport/17/HRPT/105?format=json"
        },
        {
            "citation": "H. Rept. 17-94",
            "updateDate": "2021-12-22 10:26:46+00:00",
            "url": "https://api.congress.gov/v3/committeeReport/17/HRPT/94?format=json"
        },
        {
            "citation": "H. Rept. 17-69",
            "updateDate": "2021-12-22 10:26:46+00:00",
            "url": "https://api.congress.gov/v3/committeeReport/17/HRPT/69?format=json"
        },
        {
            "citation": "H. Rept. 17-68",
            "updateDate": "2021-12-22 10:26:46+00:00",
            "url": "https://api.congress.gov/v3/committeeReport/17/HRPT/68?format=json"
        },
        {
            "citation": "H. Rept. 17-67",
            "updateDate": "2021-12-22 10:26:46+00:00",
            "url": "https://api.congress.gov/v3/committeeReport/17/HRPT/67?format=json"
        },
        {
            "citation": "H. Rept. 17-66",
            "updateDate": "2021-12-22 10:26:46+00:00",
            "url": "https://api.congress.gov/v3/committeeReport/17/HRPT/66?format=json"
        },
        {
            "citation": "H. Rept. 17-65",
            "updateDate": "2021-12-22 10:26:46+00:00",
            "url": "https://api.congress.gov/v3/committeeReport/17/HRPT/65?format=json"
        },
        {
            "citation": "H. Rept. 17-64",
            "updateDate": "2021-12-22 10:26:46+00:00",
            "url": "https://api.congress.gov/v3/committeeReport/17/HRPT/64?format=json"
        },
        {
            "citation": "H. Rept. 17-63",
            "updateDate": "2021-12-22 10:26:46+00:00",
            "url": "https://api.congress.gov/v3/committeeReport/17/HRPT/63?format=json"
        },
        {
            "citation": "H. Rept. 17-62",
            "updateDate": "2021-12-22 10:26:46+00:00",
            "url": "https://api.congress.gov/v3/committeeReport/17/HRPT/62?format=json"
        },
        {
            "citation": "H. Rept. 17-61",
            "updateDate": "2021-12-22 10:26:46+00:00",
            "url": "https://api.congress.gov/v3/committeeReport/17/HRPT/61?format=json"
        },
        {
            "citation": "H. Rept. 17-60",
            "updateDate": "2021-12-22 10:26:46+00:00",
            "url": "https://api.congress.gov/v3/committeeReport/17/HRPT/60?format=json"
        },
        {
            "citation": "H. Rept. 17-59",
            "updateDate": "2021-12-22 10:26:46+00:00",
            "url": "https://api.congress.gov/v3/committeeReport/17/HRPT/59?format=json"
        },
        {
            "citation": "H. Rept. 17-58",
            "updateDate": "2021-12-22 10:26:46+00:00",
            "url": "https://api.congress.gov/v3/committeeReport/17/HRPT/58?format=json"
        },
        {
            "citation": "H. Rept. 17-57",
            "updateDate": "2021-12-22 10:26:46+00:00",
            "url": "https://api.congress.gov/v3/committeeReport/17/HRPT/57?format=json"
        },
        {
            "citation": "H. Rept. 17-56",
            "updateDate": "2021-12-22 10:26:46+00:00",
            "url": "https://api.congress.gov/v3/committeeReport/17/HRPT/56?format=json"
        },
        {
            "citation": "H. Rept. 17-55",
            "updateDate": "2021-12-22 10:26:50+00:00",
            "url": "https://api.congress.gov/v3/committeeReport/17/HRPT/55?format=json"
        },
        {
            "citation": "H. Rept. 17-54",
            "updateDate": "2021-12-22 10:26:49+00:00",
            "url": "https://api.congress.gov/v3/committeeReport/17/HRPT/54?format=json"
        },
        {
            "citation": "H. Rept. 17-53",
            "updateDate": "2021-12-22 10:26:49+00:00",
            "url": "https://api.congress.gov/v3/committeeReport/17/HRPT/53?format=json"
        }
    ],
    "request": {
        "contentType": "application/json",
        "format": "json"
    }
}
