{
    "committeePrints": [
        {
            "chamber": "House",
            "congress": 94,
            "jacketNumber": 77245,
            "updateDate": "2020-05-01 18:32:46+00:00",
            "url": "https://v3/committee-print/94/house/77245?format=json"
        },
        {
            "chamber": "House",
            "congress": 94,
            "jacketNumber": 54857,
            "updateDate": "2023-10-13 15:31:34+00:00",
            "url": "https://v3/committee-print/94/house/54857?format=json"
        },
        {
            "chamber": "House",
            "congress": 101,
            "jacketNumber": 48719,
            "updateDate": "2020-05-01 18:34:20+00:00",
            "url": "https://v3/committee-print/101/house/48719?format=json"
        },
        {
            "chamber": "House",
            "congress": 102,
            "jacketNumber": 48719,
            "updateDate": "2020-05-01 18:35:07+00:00",
            "url": "https://v3/committee-print/102/house/48719?format=json"
        },
        {
            "chamber": "House",
            "congress": 102,
            "jacketNumber": 58561,
            "updateDate": "2023-12-04 23:00:42+00:00",
            "url": "https://v3/committee-print/102/house/58561?format=json"
        },
        {
            "chamber": "House",
            "congress": 103,
            "jacketNumber": 79568,
            "updateDate": "2020-12-15 17:52:57+00:00",
            "url": "https://v3/committee-print/103/house/79568?format=json"
        },
        {
            "chamber": "House",
            "congress": 103,
            "jacketNumber": 73409,
            "updateDate": "2020-12-15 17:52:58+00:00",
            "url": "https://v3/committee-print/103/house/73409?format=json"
        },
        {
            "chamber": "House",
            "congress": 103,
            "jacketNumber": 78839,
            "updateDate": "2020-12-15 17:52:58+00:00",
            "url": "https://v3/committee-print/103/house/78839?format=json"
        },
        {
            "chamber": "House",
            "congress": 103,
            "jacketNumber": 75254,
            "updateDate": "2020-12-15 17:52:56+00:00",
            "url": "https://v3/committee-print/103/house/75254?format=json"
        },
        {
            "chamber": "House",
            "congress": 103,
            "jacketNumber": 70156,
            "updateDate": "2020-12-15 17:52:57+00:00",
            "url": "https://v3/committee-print/103/house/70156?format=json"
        },
        {
            "chamber": "House",
            "congress": 103,
            "jacketNumber": 65393,
            "updateDate": "2020-12-15 17:52:54+00:00",
            "url": "https://v3/committee-print/103/house/65393?format=json"
        },
        {
            "chamber": "House",
            "congress": 103,
            "jacketNumber": 62702,
            "updateDate": "2020-12-15 17:52:55+00:00",
            "url": "https://v3/committee-print/103/house/62702?format=json"
        },
        {
            "chamber": "House",
            "congress": 103,
            "jacketNumber": 81821,
            "updateDate": "2020-12-15 17:52:56+00:00",
            "url": "https://v3/committee-print/103/house/81821?format=json"
        },
        {
            "chamber": "House",
            "congress": 103,
            "jacketNumber": 48719,
            "updateDate": "2020-12-15 17:52:56+00:00",
            "url": "https://v3/committee-print/103/house/48719?format=json"
        },
        {
            "chamber": "Senate",
            "congress": 103,
            "jacketNumber": 85058,
            "updateDate": "2020-12-15 17:52:55+00:00",
            "url": "https://v3/committee-print/103/senate/85058?format=json"
        },
        {
            "chamber": "House",
            "congress": 103,
            "jacketNumber": 53103,
            "updateDate": "2022-01-28 22:47:59+00:00",
            "url": "https://v3/committee-print/103/house/53103?format=json"
        },
        {
            "chamber": "House",
            "congress": 104,
            "jacketNumber": 48719,
            "updateDate": "2020-12-15 17:50:46+00:00",
            "url": "https://v3/committee-print/104/house/48719?format=json"
        },
        {
            "chamber": "House",
            "congress": 104,
            "jacketNumber": 89631,
            "updateDate": "2020-12-15 17:50:49+00:00",
            "url": "https://v3/committee-print/104/house/89631?format=json"
        },
        {
            "chamber": "House",
            "congress": 104,
            "jacketNumber": 23170,
            "updateDate": "2020-12-15 17:50:49+00:00",
            "url": "https://v3/committee-print/104/house/23170?format=json"
        },
        {
            "chamber": "House",
            "congress": 104,
            "jacketNumber": 21612,
            "updateDate": "2020-12-15 17:50:47+00:00",
            "url": "https://v3/committee-print/104/house/21612?format=json"
        }
    ],
    "pagination": {
        "count": 1709,
        "next": "https://v3/committee-print?offset=20&limit=20&format=json"
    },
    "request": {
        "contentType": "application/json",
        "format": "json"
    }
}
