{
    "houseCommunications": [
        {
            "chamber": "House",
            "communicationNumber": 1,
            "communicationType": {
                "code": "EC",
                "name": "Executive Communication"
            },
            "congressNumber": 115,
            "url": "https://api.congress.gov/v3/house-communication/115/ec/1?format=json"
        },
        {
            "chamber": "House",
            "communicationNumber": 2,
            "communicationType": {
                "code": "EC",
                "name": "Executive Communication"
            },
            "congressNumber": 115,
            "url": "https://api.congress.gov/v3/house-communication/115/ec/2?format=json"
        },
        {
            "chamber": "House",
            "communicationNumber": 3,
            "communicationType": {
                "code": "EC",
                "name": "Executive Communication"
            },
            "congressNumber": 115,
            "url": "https://api.congress.gov/v3/house-communication/115/ec/3?format=json"
        },
        {
            "chamber": "House",
            "communicationNumber": 4,
            "communicationType": {
                "code": "EC",
                "name": "Executive Communication"
            },
            "congressNumber": 115,
            "url": "https://api.congress.gov/v3/house-communication/115/ec/4?format=json"
        },
        {
            "chamber": "House",
            "communicationNumber": 5,
            "communicationType": {
                "code": "EC",
                "name": "Executive Communication"
            },
            "congressNumber": 115,
            "url": "https://api.congress.gov/v3/house-communication/115/ec/5?format=json"
        },
        {
            "chamber": "House",
            "communicationNumber": 6,
            "communicationType": {
                "code": "EC",
                "name": "Executive Communication"
            },
            "congressNumber": 115,
            "url": "https://api.congress.gov/v3/house-communication/115/ec/6?format=json"
        },
        {
            "chamber": "House",
            "communicationNumber": 7,
            "communicationType": {
                "code": "EC",
                "name": "Executive Communication"
            },
            "congressNumber": 115,
            "url": "https://api.congress.gov/v3/house-communication/115/ec/7?format=json"
        },
        {
            "chamber": "House",
            "communicationNumber": 8,
            "communicationType": {
                "code": "EC",
                "name": "Executive Communication"
            },
            "congressNumber": 115,
            "url": "https://api.congress.gov/v3/house-communication/115/ec/8?format=json"
        },
        {
            "chamber": "House",
            "communicationNumber": 9,
            "communicationType": {
                "code": "EC",
                "name": "Executive Communication"
            },
            "congressNumber": 115,
            "url": "https://api.congress.gov/v3/house-communication/115/ec/9?format=json"
        },
        {
            "chamber": "House",
            "communicationNumber": 10,
            "communicationType": {
                "code": "EC",
                "name": "Executive Communication"
            },
            "congressNumber": 115,
            "url": "https://api.congress.gov/v3/house-communication/115/ec/10?format=json"
        },
        {
            "chamber": "House",
            "communicationNumber": 11,
            "communicationType": {
                "code": "EC",
                "name": "Executive Communication"
            },
            "congressNumber": 115,
            "url": "https://api.congress.gov/v3/house-communication/115/ec/11?format=json"
        },
        {
            "chamber": "House",
            "communicationNumber": 12,
            "communicationType": {
                "code": "EC",
                "name": "Executive Communication"
            },
            "congressNumber": 115,
            "url": "https://api.congress.gov/v3/house-communication/115/ec/12?format=json"
        },
        {
            "chamber": "House",
            "communicationNumber": 13,
            "communicationType": {
                "code": "EC",
                "name": "Executive Communication"
            },
            "congressNumber": 115,
            "url": "https://api.congress.gov/v3/house-communication/115/ec/13?format=json"
        },
        {
            "chamber": "House",
            "communicationNumber": 14,
            "communicationType": {
                "code": "EC",
                "name": "Executive Communication"
            },
            "congressNumber": 115,
            "url": "https://api.congress.gov/v3/house-communication/115/ec/14?format=json"
        },
        {
            "chamber": "House",
            "communicationNumber": 43,
            "communicationType": {
                "code": "EC",
                "name": "Executive Communication"
            },
            "congressNumber": 115,
            "url": "https://api.congress.gov/v3/house-communication/115/ec/43?format=json"
        },
        {
            "chamber": "House",
            "communicationNumber": 15,
            "communicationType": {
                "code": "EC",
                "name": "Executive Communication"
            },
            "congressNumber": 115,
            "url": "https://api.congress.gov/v3/house-communication/115/ec/15?format=json"
        },
        {
            "chamber": "House",
            "communicationNumber": 31,
            "communicationType": {
                "code": "EC",
                "name": "Executive Communication"
            },
            "congressNumber": 115,
            "url": "https://api.congress.gov/v3/house-communication/115/ec/31?format=json"
        },
        {
            "chamber": "House",
            "communicationNumber": 32,
            "communicationType": {
                "code": "EC",
                "name": "Executive Communication"
            },
            "congressNumber": 115,
            "url": "https://api.congress.gov/v3/house-communication/115/ec/32?format=json"
        },
        {
            "chamber": "House",
            "communicationNumber": 33,
            "communicationType": {
                "code": "EC",
                "name": "Executive Communication"
            },
            "congressNumber": 115,
            "url": "https://api.congress.gov/v3/house-communication/115/ec/33?format=json"
        },
        {
            "chamber": "House",
            "communicationNumber": 34,
            "communicationType": {
                "code": "EC",
                "name": "Executive Communication"
            },
            "congressNumber": 115,
            "url": "https://api.congress.gov/v3/house-communication/115/ec/34?format=json"
        }
    ],
    "pagination": {
        "count": 28922,
        "next": "https://api.congress.gov/congress/v3/house-communication?offset=20&limit=20&format=json"
    },
    "request": {
        "contentType": "application/json",
        "format": "json"
    }
}
