{
    "bills": [
        {
            "congress": 118,
            "latestAction": {
                "actionDate": "2023-03-10",
                "text": "Referred to the Subcommittee on Highways and Transit."
            },
            "number": "1500",
            "originChamber": "House",
            "originChamberCode": "H",
            "title": "To establish a program to use anonymized data from third party entities to inform infrastructure planning decisions and to improve transportation management capabilities and efficiency on Federal-aid highways, and for other purposes.",
            "type": "HR",
            "updateDate": "2023-03-11",
            "updateDateIncludingText": "2023-03-11T08:14:28Z",
            "url": "https://api.congress.gov/v3/bill/118/hr/1500?format=json"
        },
        {
            "congress": 118,
            "latestAction": {
                "actionDate": "2023-03-10",
                "text": "Referred to the Subcommittee on Aviation."
            },
            "number": "1499",
            "originChamber": "House",
            "originChamberCode": "H",
            "title": "To require small, medium, and large hub airports to certify that airport service workers are paid the prevailing wage and provided fringe benefits, and for other purposes.",
            "type": "HR",
            "updateDate": "2023-03-11",
            "updateDateIncludingText": "2023-03-11T08:14:28Z",
            "url": "https://api.congress.gov/v3/bill/118/hr/1499?format=json"
        },
        {
            "congress": 118,
            "latestAction": {
                "actionDate": "2023-03-10",
                "text": "Referred to the Subcommittee on Railroads, Pipelines, and Hazardous Materials."
            },
            "number": "1484",
            "originChamber": "House",
            "originChamberCode": "H",
            "title": "To amend title 49, United States Code, to establish a penalty for causing a defect in pipeline infrastructure, and for other purposes.",
            "type": "HR",
            "updateDate": "2023-03-11",
            "updateDateIncludingText": "2023-03-11T08:14:28Z",
            "url": "https://api.congress.gov/v3/bill/118/hr/1484?format=json"
        },
        {
            "congress": 118,
            "latestAction": {
                "actionDate": "2023-03-10",
                "actionTime": "10:39:50",
                "text": "Motion to reconsider laid on the table Agreed to without objection."
            },
            "number": "197",
            "originChamber": "House",
            "originChamberCode": "H",
            "title": "Providing for the expenses of certain committees of the House of Representatives in the One Hundred Eighteenth Congress.",
            "type": "HRES",
            "updateDate": "2023-03-13",
            "updateDateIncludingText": "2023-03-13T12:58:40Z",
            "url": "https://api.congress.gov/v3/bill/118/hres/197?format=json"
        },
        {
            "congress": 118,
            "latestAction": {
                "actionDate": "2023-03-10",
                "actionTime": "10:29:48",
                "text": "Motion to reconsider laid on the table Agreed to without objection."
            },
            "number": "619",
            "originChamber": "Senate",
            "originChamberCode": "S",
            "title": "COVID–19 Origin Act of 2023",
            "type": "S",
            "updateDate": "2023-03-13",
            "updateDateIncludingText": "2023-03-13T12:36:21Z",
            "url": "https://api.congress.gov/v3/bill/118/s/619?format=json"
        },
        {
            "congress": 118,
            "latestAction": {
                "actionDate": "2023-03-10",
                "text": "Referred to the House Committee on Natural Resources."
            },
            "number": "1559",
            "originChamber": "House",
            "originChamberCode": "H",
            "title": "To direct the Secretary of the Interior to issue an oil and gas leasing program under section 18 of the Outer Continental Shelf Lands Act, and for other purposes.",
            "type": "HR",
            "updateDate": "2023-03-11",
            "updateDateIncludingText": "2023-03-11T08:15:38Z",
            "url": "https://api.congress.gov/v3/bill/118/hr/1559?format=json"
        },
        {
            "congress": 118,
            "latestAction": {
                "actionDate": "2023-03-10",
                "text": "Referred to the House Committee on the Judiciary."
            },
            "number": "1537",
            "originChamber": "House",
            "originChamberCode": "H",
            "title": "To amend the William Wilberforce Trafficking Victims Protection Act of 2008 to transfer the custody of an unaccompanied alien child to the Secretary of Health and Human Services or such child's parent or legal guardian.",
            "type": "HR",
            "updateDate": "2023-03-11",
            "updateDateIncludingText": "2023-03-11T08:15:36Z",
            "url": "https://api.congress.gov/v3/bill/118/hr/1537?format=json"
        },
        {
            "congress": 118,
            "latestAction": {
                "actionDate": "2023-03-10",
                "text": "Referred to the House Committee on Ways and Means."
            },
            "number": "1565",
            "originChamber": "House",
            "originChamberCode": "H",
            "title": "To amend title XVIII of the Social Security Act to remove the 96-hour physician certification requirement for inpatient critical access hospital services.",
            "type": "HR",
            "updateDate": "2023-03-11",
            "updateDateIncludingText": "2023-03-11T08:15:39Z",
            "url": "https://api.congress.gov/v3/bill/118/hr/1565?format=json"
        },
        {
            "congress": 118,
            "latestAction": {
                "actionDate": "2023-03-10",
                "text": "Referred to the House Committee on Homeland Security."
            },
            "number": "1531",
            "originChamber": "House",
            "originChamberCode": "H",
            "title": "To provide for the renewed availability of funds to construct the border wall upon the deployment of the National Guard to the southern land border of the United States, and for other purposes.",
            "type": "HR",
            "updateDate": "2023-03-11",
            "updateDateIncludingText": "2023-03-11T08:15:36Z",
            "url": "https://api.congress.gov/v3/bill/118/hr/1531?format=json"
        },
        {
            "congress": 118,
            "latestAction": {
                "actionDate": "2023-03-10",
                "text": "Referred to the House Committee on Education and the Workforce."
            },
            "number": "222",
            "originChamber": "House",
            "originChamberCode": "H",
            "title": "Expressing support for approximately doubling funding for Federal career and technical education programs.",
            "type": "HRES",
            "updateDate": "2023-03-13",
            "updateDateIncludingText": "2023-03-13T17:30:26Z",
            "url": "https://api.congress.gov/v3/bill/118/hres/222?format=json"
        },
        {
            "congress": 118,
            "latestAction": {
                "actionDate": "2023-03-10",
                "text": "Referred to the House Committee on Education and the Workforce."
            },
            "number": "1539",
            "originChamber": "House",
            "originChamberCode": "H",
            "title": "To amend the Richard B. Russell National School Lunch Act to require schools to provide fluid milk substitutes upon request of a student or the parent or guardian of such student, and for other purposes.",
            "type": "HR",
            "updateDate": "2023-03-11",
            "updateDateIncludingText": "2023-03-11T08:15:36Z",
            "url": "https://api.congress.gov/v3/bill/118/hr/1539?format=json"
        },
        {
            "congress": 118,
            "latestAction": {
                "actionDate": "2023-03-10",
                "text": "Referred to the House Committee on Small Business."
            },
            "number": "1538",
            "originChamber": "House",
            "originChamberCode": "H",
            "title": "To amend the Small Business Act to provide for contracting preferences and other benefits for emerging business enterprises, and for other purposes.",
            "type": "HR",
            "updateDate": "2023-03-13",
            "updateDateIncludingText": "2023-03-13T12:43:41Z",
            "url": "https://api.congress.gov/v3/bill/118/hr/1538?format=json"
        },
        {
            "congress": 118,
            "latestAction": {
                "actionDate": "2023-03-10",
                "text": "Referred to the House Committee on Ways and Means."
            },
            "number": "1545",
            "originChamber": "House",
            "originChamberCode": "H",
            "title": "To amend the Internal Revenue Code of 1986 to exclude from gross income certain income from providing real propoerty insurance following certain federally declared disasters.",
            "type": "HR",
            "updateDate": "2023-03-11",
            "updateDateIncludingText": "2023-03-11T08:15:37Z",
            "url": "https://api.congress.gov/v3/bill/118/hr/1545?format=json"
        },
        {
            "congress": 118,
            "latestAction": {
                "actionDate": "2023-03-10",
                "text": "Referred to the House Committee on Education and the Workforce."
            },
            "number": "1543",
            "originChamber": "House",
            "originChamberCode": "H",
            "title": "To direct the Secretary of Labor to ensure that the database relating to investigations under the Fair Labor Standards Act of 1938 is language accessible, and for other purposes.",
            "type": "HR",
            "updateDate": "2023-03-11",
            "updateDateIncludingText": "2023-03-11T08:15:37Z",
            "url": "https://api.congress.gov/v3/bill/118/hr/1543?format=json"
        },
        {
            "congress": 118,
            "latestAction": {
                "actionDate": "2023-03-10",
                "text": "Referred to the House Committee on Natural Resources."
            },
            "number": "1534",
            "originChamber": "House",
            "originChamberCode": "H",
            "title": "To establish the Dolores River National Conservation Area and the Dolores River Special Management Area in the State of Colorado, to protect private water rights in the State, and for other purposes.",
            "type": "HR",
            "updateDate": "2023-03-11",
            "updateDateIncludingText": "2023-03-11T08:15:36Z",
            "url": "https://api.congress.gov/v3/bill/118/hr/1534?format=json"
        },
        {
            "congress": 118,
            "latestAction": {
                "actionDate": "2023-03-10",
                "text": "Referred to the Committee on Financial Services, and in addition to the Committee on Oversight and Accountability, for a period to be subsequently determined by the Speaker, in each case for consideration of such provisions as fall within the jurisdiction of the committee concerned."
            },
            "number": "1548",
            "originChamber": "House",
            "originChamberCode": "H",
            "title": "To amend the Securities Exchange Act of 1934 to specify that actions of the Advocate for Small Business Capital Formation are not a collection of information under the Paperwork Reduction Act.",
            "type": "HR",
            "updateDate": "2023-03-11",
            "updateDateIncludingText": "2023-03-11T08:15:37Z",
            "url": "https://api.congress.gov/v3/bill/118/hr/1548?format=json"
        },
        {
            "congress": 118,
            "latestAction": {
                "actionDate": "2023-03-10",
                "text": "Referred to the House Committee on the Judiciary."
            },
            "number": "1564",
            "originChamber": "House",
            "originChamberCode": "H",
            "title": "To direct the Secretary of State to submit to Congress a report on the designation of the Gulf Cartel, the Cartel Del Noreste, the Cartel de Sinaloa, and the Cartel de Jalisco Nueva Generacion as foreign terrorist organizations, and for other purposes.",
            "type": "HR",
            "updateDate": "2023-03-13",
            "updateDateIncludingText": "2023-03-13T12:43:41Z",
            "url": "https://api.congress.gov/v3/bill/118/hr/1564?format=json"
        },
        {
            "congress": 118,
            "latestAction": {
                "actionDate": "2023-03-10",
                "text": "Referred to the House Committee on Financial Services."
            },
            "number": "1553",
            "originChamber": "House",
            "originChamberCode": "H",
            "title": "To require the Securities and Exchange Commission to revise rules relating to general solicitation or general advertising to allow for presentations or other communication made by or on behalf of an issuer at certain events, and for other purposes.",
            "type": "HR",
            "updateDate": "2023-03-11",
            "updateDateIncludingText": "2023-03-11T08:15:38Z",
            "url": "https://api.congress.gov/v3/bill/118/hr/1553?format=json"
        },
        {
            "congress": 118,
            "latestAction": {
                "actionDate": "2023-03-10",
                "text": "Referred to the House Committee on Energy and Commerce."
            },
            "number": "224",
            "originChamber": "House",
            "originChamberCode": "H",
            "title": "Raising awareness of the racial disparities in the impact of colorectal cancer on the Black community.",
            "type": "HRES",
            "updateDate": "2023-03-13",
            "updateDateIncludingText": "2023-03-13T17:30:26Z",
            "url": "https://api.congress.gov/v3/bill/118/hres/224?format=json"
        },
        {
            "congress": 118,
            "latestAction": {
                "actionDate": "2023-03-10",
                "text": "Referred to the Committee on Ways and Means, and in addition to the Committee on Oversight and Accountability, for a period to be subsequently determined by the Speaker, in each case for consideration of such provisions as fall within the jurisdiction of the committee concerned."
            },
            "number": "1536",
            "originChamber": "House",
            "originChamberCode": "H",
            "title": "To amend the Internal Revenue Code of 1986 to allow employers a credit against income tax for employees who participate in qualified apprenticeship programs.",
            "type": "HR",
            "updateDate": "2023-03-13",
            "updateDateIncludingText": "2023-03-13T12:43:38Z",
            "url": "https://api.congress.gov/v3/bill/118/hr/1536?format=json"
        }
    ],
    "pagination": {
        "count": 393837,
        "next": "https://api.congress.gov/v3/bill?offset=20&limit=20&format=json"
    },
    "request": {
        "contentType": "application/json",
        "format": "json"
    }
}
