{
    "congresses": [
        {
            "endYear": "2024",
            "name": "118th Congress",
            "sessions": [
                {
                    "chamber": "House of Representatives",
                    "number": 1,
                    "startDate": "2023-01-03",
                    "type": "R"
                },
                {
                    "chamber": "Senate",
                    "number": 1,
                    "startDate": "2023-01-03",
                    "type": "R"
                }
            ],
            "startYear": "2023",
            "url": "https://v3/congress/118?format=json"
        },
        {
            "endYear": "2022",
            "name": "117th Congress",
            "sessions": [
                {
                    "chamber": "House of Representatives",
                    "endDate": "2022-01-03",
                    "number": 1,
                    "startDate": "2021-01-03",
                    "type": "R"
                },
                {
                    "chamber": "Senate",
                    "endDate": "2022-01-03",
                    "number": 1,
                    "startDate": "2021-01-03",
                    "type": "R"
                },
                {
                    "chamber": "House of Representatives",
                    "endDate": "2023-01-03",
                    "number": 2,
                    "startDate": "2022-01-03",
                    "type": "R"
                },
                {
                    "chamber": "Senate",
                    "endDate": "2023-01-03",
                    "number": 2,
                    "startDate": "2022-01-03",
                    "type": "R"
                }
            ],
            "startYear": "2021",
            "url": "https://v3/congress/117?format=json"
        },
        {
            "endYear": "2020",
            "name": "116th Congress",
            "sessions": [
                {
                    "chamber": "House of Representatives",
                    "endDate": "2020-01-03",
                    "number": 1,
                    "startDate": "2019-01-03",
                    "type": "R"
                },
                {
                    "chamber": "Senate",
                    "endDate": "2020-01-03",
                    "number": 1,
                    "startDate": "2019-01-03",
                    "type": "R"
                },
                {
                    "chamber": "House of Representatives",
                    "endDate": "2021-01-03",
                    "number": 2,
                    "startDate": "2020-01-03",
                    "type": "R"
                },
                {
                    "chamber": "Senate",
                    "endDate": "2021-01-03",
                    "number": 2,
                    "startDate": "2020-01-03",
                    "type": "R"
                }
            ],
            "startYear": "2019",
            "url": "https://v3/congress/116?format=json"
        },
        {
            "endYear": "2018",
            "name": "115th Congress",
            "sessions": [
                {
                    "chamber": "House of Representatives",
                    "endDate": "2018-01-03",
                    "number": 1,
                    "startDate": "2017-01-03",
                    "type": "R"
                },
                {
                    "chamber": "Senate",
                    "endDate": "2018-01-03",
                    "number": 1,
                    "startDate": "2017-01-03",
                    "type": "R"
                },
                {
                    "chamber": "House of Representatives",
                    "endDate": "2019-01-03",
                    "number": 2,
                    "startDate": "2018-01-03",
                    "type": "R"
                },
                {
                    "chamber": "Senate",
                    "endDate": "2019-01-03",
                    "number": 2,
                    "startDate": "2018-01-03",
                    "type": "R"
                }
            ],
            "startYear": "2017",
            "url": "https://v3/congress/115?format=json"
        },
        {
            "endYear": "2016",
            "name": "114th Congress",
            "sessions": [
                {
                    "chamber": "House of Representatives",
                    "endDate": "2015-12-18",
                    "number": 1,
                    "startDate": "2015-01-06",
                    "type": "R"
                },
                {
                    "chamber": "Senate",
                    "endDate": "2015-12-18",
                    "number": 1,
                    "startDate": "2015-01-06",
                    "type": "R"
                },
                {
                    "chamber": "House of Representatives",
                    "endDate": "2017-01-03",
                    "number": 2,
                    "startDate": "2016-01-04",
                    "type": "R"
                },
                {
                    "chamber": "Senate",
                    "endDate": "2017-01-03",
                    "number": 2,
                    "startDate": "2016-01-04",
                    "type": "R"
                }
            ],
            "startYear": "2015",
            "url": "https://v3/congress/114?format=json"
        },
        {
            "endYear": "2014",
            "name": "113th Congress",
            "sessions": [
                {
                    "chamber": "House of Representatives",
                    "endDate": "2014-01-03",
                    "number": 1,
                    "startDate": "2013-01-03",
                    "type": "R"
                },
                {
                    "chamber": "Senate",
                    "endDate": "2014-01-03",
                    "number": 1,
                    "startDate": "2013-01-03",
                    "type": "R"
                },
                {
                    "chamber": "House of Representatives",
                    "endDate": "2015-01-02",
                    "number": 2,
                    "startDate": "2014-01-03",
                    "type": "R"
                },
                {
                    "chamber": "Senate",
                    "endDate": "2015-01-02",
                    "number": 2,
                    "startDate": "2014-01-03",
                    "type": "R"
                }
            ],
            "startYear": "2013",
            "url": "https://v3/congress/113?format=json"
        },
        {
            "endYear": "2012",
            "name": "112th Congress",
            "sessions": [
                {
                    "chamber": "House of Representatives",
                    "endDate": "2012-01-02",
                    "number": 1,
                    "startDate": "2011-01-05",
                    "type": "R"
                },
                {
                    "chamber": "Senate",
                    "endDate": "2012-01-02",
                    "number": 1,
                    "startDate": "2011-01-05",
                    "type": "R"
                },
                {
                    "chamber": "House of Representatives",
                    "endDate": "2013-01-03",
                    "number": 2,
                    "startDate": "2012-01-03",
                    "type": "R"
                },
                {
                    "chamber": "Senate",
                    "endDate": "2013-01-03",
                    "number": 2,
                    "startDate": "2012-01-03",
                    "type": "R"
                }
            ],
            "startYear": "2011",
            "url": "https://v3/congress/112?format=json"
        },
        {
            "endYear": "2010",
            "name": "111th Congress",
            "sessions": [
                {
                    "chamber": "House of Representatives",
                    "endDate": "2009-12-24",
                    "number": 1,
                    "startDate": "2009-01-06",
                    "type": "R"
                },
                {
                    "chamber": "Senate",
                    "endDate": "2009-12-24",
                    "number": 1,
                    "startDate": "2009-01-06",
                    "type": "R"
                },
                {
                    "chamber": "House of Representatives",
                    "endDate": "2010-12-22",
                    "number": 2,
                    "startDate": "2010-01-05",
                    "type": "R"
                },
                {
                    "chamber": "Senate",
                    "endDate": "2010-12-22",
                    "number": 2,
                    "startDate": "2010-01-05",
                    "type": "R"
                }
            ],
            "startYear": "2009",
            "url": "https://v3/congress/111?format=json"
        },
        {
            "endYear": "2008",
            "name": "110th Congress",
            "sessions": [
                {
                    "chamber": "House of Representatives",
                    "endDate": "2007-12-19",
                    "number": 1,
                    "startDate": "2007-01-04",
                    "type": "R"
                },
                {
                    "chamber": "Senate",
                    "endDate": "2007-12-19",
                    "number": 1,
                    "startDate": "2007-01-04",
                    "type": "R"
                },
                {
                    "chamber": "House of Representatives",
                    "endDate": "2009-01-03",
                    "number": 2,
                    "startDate": "2008-01-03",
                    "type": "R"
                },
                {
                    "chamber": "Senate",
                    "endDate": "2009-01-03",
                    "number": 2,
                    "startDate": "2008-01-03",
                    "type": "R"
                }
            ],
            "startYear": "2007",
            "url": "https://v3/congress/110?format=json"
        },
        {
            "endYear": "2006",
            "name": "109th Congress",
            "sessions": [
                {
                    "chamber": "House of Representatives",
                    "endDate": "2005-12-22",
                    "number": 1,
                    "startDate": "2005-01-04",
                    "type": "R"
                },
                {
                    "chamber": "Senate",
                    "endDate": "2005-12-22",
                    "number": 1,
                    "startDate": "2005-01-04",
                    "type": "R"
                },
                {
                    "chamber": "House of Representatives",
                    "endDate": "2006-12-09",
                    "number": 2,
                    "startDate": "2006-01-03",
                    "type": "R"
                },
                {
                    "chamber": "Senate",
                    "endDate": "2006-12-09",
                    "number": 2,
                    "startDate": "2006-01-03",
                    "type": "R"
                }
            ],
            "startYear": "2005",
            "url": "https://v3/congress/109?format=json"
        },
        {
            "endYear": "2004",
            "name": "108th Congress",
            "sessions": [
                {
                    "chamber": "House of Representatives",
                    "endDate": "2003-12-09",
                    "number": 1,
                    "startDate": "2003-01-07",
                    "type": "R"
                },
                {
                    "chamber": "Senate",
                    "endDate": "2003-12-09",
                    "number": 1,
                    "startDate": "2003-01-07",
                    "type": "R"
                },
                {
                    "chamber": "House of Representatives",
                    "endDate": "2004-12-08",
                    "number": 2,
                    "startDate": "2004-01-20",
                    "type": "R"
                },
                {
                    "chamber": "Senate",
                    "endDate": "2004-12-08",
                    "number": 2,
                    "startDate": "2004-01-20",
                    "type": "R"
                }
            ],
            "startYear": "2003",
            "url": "https://v3/congress/108?format=json"
        },
        {
            "endYear": "2002",
            "name": "107th Congress",
            "sessions": [
                {
                    "chamber": "House of Representatives",
                    "endDate": "2001-12-20",
                    "number": 1,
                    "startDate": "2001-01-03",
                    "type": "R"
                },
                {
                    "chamber": "Senate",
                    "endDate": "2001-12-20",
                    "number": 1,
                    "startDate": "2001-01-03",
                    "type": "R"
                },
                {
                    "chamber": "House of Representatives",
                    "endDate": "2002-11-22",
                    "number": 2,
                    "startDate": "2002-01-23",
                    "type": "R"
                },
                {
                    "chamber": "Senate",
                    "endDate": "2002-11-22",
                    "number": 2,
                    "startDate": "2002-01-23",
                    "type": "R"
                }
            ],
            "startYear": "2001",
            "url": "https://v3/congress/107?format=json"
        },
        {
            "endYear": "2000",
            "name": "106th Congress",
            "sessions": [
                {
                    "chamber": "House of Representatives",
                    "endDate": "1999-11-22",
                    "number": 1,
                    "startDate": "1999-01-06",
                    "type": "R"
                },
                {
                    "chamber": "Senate",
                    "endDate": "1999-11-22",
                    "number": 1,
                    "startDate": "1999-01-06",
                    "type": "R"
                },
                {
                    "chamber": "House of Representatives",
                    "endDate": "2000-12-15",
                    "number": 2,
                    "startDate": "2000-01-24",
                    "type": "R"
                },
                {
                    "chamber": "Senate",
                    "endDate": "2000-12-15",
                    "number": 2,
                    "startDate": "2000-01-24",
                    "type": "R"
                }
            ],
            "startYear": "1999",
            "url": "https://v3/congress/106?format=json"
        },
        {
            "endYear": "1998",
            "name": "105th Congress",
            "sessions": [
                {
                    "chamber": "House of Representatives",
                    "endDate": "1997-11-13",
                    "number": 1,
                    "startDate": "1997-01-07",
                    "type": "R"
                },
                {
                    "chamber": "Senate",
                    "endDate": "1997-11-13",
                    "number": 1,
                    "startDate": "1997-01-07",
                    "type": "R"
                },
                {
                    "chamber": "House of Representatives",
                    "endDate": "1998-12-19",
                    "number": 2,
                    "startDate": "1998-01-27",
                    "type": "R"
                },
                {
                    "chamber": "Senate",
                    "endDate": "1998-12-19",
                    "number": 2,
                    "startDate": "1998-01-27",
                    "type": "R"
                }
            ],
            "startYear": "1997",
            "url": "https://v3/congress/105?format=json"
        },
        {
            "endYear": "1996",
            "name": "104th Congress",
            "sessions": [
                {
                    "chamber": "House of Representatives",
                    "endDate": "1996-01-03",
                    "number": 1,
                    "startDate": "1995-01-04",
                    "type": "R"
                },
                {
                    "chamber": "Senate",
                    "endDate": "1996-01-03",
                    "number": 1,
                    "startDate": "1995-01-04",
                    "type": "R"
                },
                {
                    "chamber": "House of Representatives",
                    "endDate": "1996-10-04",
                    "number": 2,
                    "startDate": "1996-01-03",
                    "type": "R"
                },
                {
                    "chamber": "Senate",
                    "endDate": "1996-10-04",
                    "number": 2,
                    "startDate": "1996-01-03",
                    "type": "R"
                }
            ],
            "startYear": "1995",
            "url": "https://v3/congress/104?format=json"
        },
        {
            "endYear": "1994",
            "name": "103rd Congress",
            "sessions": [
                {
                    "chamber": "House of Representatives",
                    "endDate": "1993-11-26",
                    "number": 1,
                    "startDate": "1993-01-05",
                    "type": "R"
                },
                {
                    "chamber": "Senate",
                    "endDate": "1993-11-26",
                    "number": 1,
                    "startDate": "1993-01-05",
                    "type": "R"
                },
                {
                    "chamber": "House of Representatives",
                    "endDate": "1994-12-01",
                    "number": 2,
                    "startDate": "1994-01-25",
                    "type": "R"
                },
                {
                    "chamber": "Senate",
                    "endDate": "1994-12-01",
                    "number": 2,
                    "startDate": "1994-01-25",
                    "type": "R"
                }
            ],
            "startYear": "1993",
            "url": "https://v3/congress/103?format=json"
        },
        {
            "endYear": "1992",
            "name": "102nd Congress",
            "sessions": [
                {
                    "chamber": "House of Representatives",
                    "endDate": "1992-01-03",
                    "number": 1,
                    "startDate": "1991-01-03",
                    "type": "R"
                },
                {
                    "chamber": "Senate",
                    "endDate": "1992-01-03",
                    "number": 1,
                    "startDate": "1991-01-03",
                    "type": "R"
                },
                {
                    "chamber": "Senate",
                    "endDate": "1992-10-09",
                    "number": 2,
                    "startDate": "1992-01-03",
                    "type": "R"
                },
                {
                    "chamber": "House of Representatives",
                    "endDate": "1992-10-09",
                    "number": 2,
                    "startDate": "1992-01-03",
                    "type": "R"
                }
            ],
            "startYear": "1991",
            "url": "https://v3/congress/102?format=json"
        },
        {
            "endYear": "1990",
            "name": "101st Congress",
            "sessions": [
                {
                    "chamber": "House of Representatives",
                    "endDate": "1989-11-22",
                    "number": 1,
                    "startDate": "1989-01-03",
                    "type": "R"
                },
                {
                    "chamber": "Senate",
                    "endDate": "1989-11-22",
                    "number": 1,
                    "startDate": "1989-01-03",
                    "type": "R"
                },
                {
                    "chamber": "House of Representatives",
                    "endDate": "1990-10-28",
                    "number": 2,
                    "startDate": "1990-01-23",
                    "type": "R"
                },
                {
                    "chamber": "Senate",
                    "endDate": "1990-10-28",
                    "number": 2,
                    "startDate": "1990-01-23",
                    "type": "R"
                }
            ],
            "startYear": "1989",
            "url": "https://v3/congress/101?format=json"
        },
        {
            "endYear": "1988",
            "name": "100th Congress",
            "sessions": [
                {
                    "chamber": "House of Representatives",
                    "endDate": "1987-12-22",
                    "number": 1,
                    "startDate": "1987-01-06",
                    "type": "R"
                },
                {
                    "chamber": "Senate",
                    "endDate": "1987-12-22",
                    "number": 1,
                    "startDate": "1987-01-06",
                    "type": "R"
                },
                {
                    "chamber": "House of Representatives",
                    "endDate": "1988-10-22",
                    "number": 2,
                    "startDate": "1988-01-25",
                    "type": "R"
                },
                {
                    "chamber": "Senate",
                    "endDate": "1988-10-22",
                    "number": 2,
                    "startDate": "1988-01-25",
                    "type": "R"
                }
            ],
            "startYear": "1987",
            "url": "https://v3/congress/100?format=json"
        },
        {
            "endYear": "1986",
            "name": "99th Congress",
            "sessions": [
                {
                    "chamber": "House of Representatives",
                    "endDate": "1985-12-20",
                    "number": 1,
                    "startDate": "1985-01-03",
                    "type": "R"
                },
                {
                    "chamber": "Senate",
                    "endDate": "1985-12-20",
                    "number": 1,
                    "startDate": "1985-01-03",
                    "type": "R"
                },
                {
                    "chamber": "House of Representatives",
                    "endDate": "1986-10-18",
                    "number": 2,
                    "startDate": "1986-01-21",
                    "type": "R"
                },
                {
                    "chamber": "Senate",
                    "endDate": "1986-10-18",
                    "number": 2,
                    "startDate": "1986-01-21",
                    "type": "R"
                }
            ],
            "startYear": "1985",
            "url": "https://v3/congress/99?format=json"
        }
    ],
    "pagination": {
        "count": 118,
        "next": "https://v3/congress?offset=20&limit=20&format=json"
    },
    "request": {
        "contentType": "application/json",
        "format": "json"
    }
}
