{
    "CRSReports": [
        {
            "contentType": "Reports",
            "id": "93-792",
            "publishDate": "2011-07-05T04:00:00Z",
            "status": "Archived",
            "title": "Social Security Benefits Are Not Paid for the Month of Death",
            "updateDate": "2025-04-18T18:57:37Z",
            "url": "https://v3/crsreport/93-792",
            "version": 125
        },
        {
            "contentType": "Reports",
            "id": "93-931",
            "publishDate": "1993-10-22T04:00:00Z",
            "status": "Archived",
            "title": "Haiti: Background to the 1991 Overthrow of President Aristide",
            "updateDate": "2025-04-18T19:30:33Z",
            "url": "https://v3/crsreport/93-931",
            "version": 104
        },
        {
            "contentType": "Reports",
            "id": "94-166",
            "publishDate": "2023-03-21T04:00:00Z",
            "status": "Active",
            "title": "Extraterritorial Application of American Criminal Law",
            "updateDate": "2025-04-18T20:37:51Z",
            "url": "https://v3/crsreport/94-166",
            "version": 134
        },
        {
            "contentType": "Reports",
            "id": "94-408",
            "publishDate": "2007-11-30T05:00:00Z",
            "status": "Archived",
            "title": "The Davis-Bacon Act: Institutional Evolution and Public Policy",
            "updateDate": "2025-04-18T19:32:35Z",
            "url": "https://v3/crsreport/94-408",
            "version": 108
        },
        {
            "contentType": "Reports",
            "id": "94-486",
            "publishDate": "2014-01-23T05:00:00Z",
            "status": "Archived",
            "title": "Supplemental Security Income (SSI)",
            "updateDate": "2025-04-18T18:49:26Z",
            "url": "https://v3/crsreport/94-486",
            "version": 116
        },
        {
            "contentType": "Reports",
            "id": "94-636",
            "publishDate": "1994-08-30T04:00:00Z",
            "status": "Archived",
            "title": "Radio and Television Broadcasting to Cuba: Background and Issues Through 1994",
            "updateDate": "2025-04-18T19:30:14Z",
            "url": "https://v3/crsreport/94-636",
            "version": 102
        },
        {
            "contentType": "Reports",
            "id": "94-803",
            "publishDate": "2025-01-15T05:00:00Z",
            "status": "Active",
            "title": "Social Security: Cost-of-Living Adjustments",
            "updateDate": "2025-04-18T22:05:41Z",
            "url": "https://v3/crsreport/94-803",
            "version": 131
        },
        {
            "contentType": "Reports",
            "id": "94-834",
            "publishDate": "2024-10-10T04:00:00Z",
            "status": "Active",
            "title": "Cost-of-Living Adjustments for Federal Civil Service Annuities",
            "updateDate": "2025-04-18T21:54:31Z",
            "url": "https://v3/crsreport/94-834",
            "version": 150
        },
        {
            "contentType": "Reports",
            "id": "94-953",
            "publishDate": "2016-11-01T04:00:00Z",
            "status": "Active",
            "title": "Social Services Block Grant: Background and Funding",
            "updateDate": "2025-04-18T18:21:33Z",
            "url": "https://v3/crsreport/94-953",
            "version": 144
        },
        {
            "contentType": "Reports",
            "id": "95-1013",
            "publishDate": "2025-04-11T04:00:00Z",
            "status": "Active",
            "title": "Bahrain: Issues for U.S. Policy",
            "updateDate": "2025-04-18T22:23:32Z",
            "url": "https://v3/crsreport/95-1013",
            "version": 282
        },
        {
            "contentType": "Reports",
            "id": "95-1050",
            "publishDate": "2001-09-24T04:00:00Z",
            "status": "Archived",
            "title": "Terrorism at Home and Abroad: Applicable Federal and State Criminal Laws",
            "updateDate": "2025-04-18T19:42:30Z",
            "url": "https://v3/crsreport/95-1050",
            "version": 102
        },
        {
            "contentType": "Reports",
            "id": "95-1135",
            "publishDate": "2015-05-07T04:00:00Z",
            "status": "Active",
            "title": "The Federal Grand Jury",
            "updateDate": "2025-04-18T18:26:45Z",
            "url": "https://v3/crsreport/95-1135",
            "version": 114
        },
        {
            "contentType": "Reports",
            "id": "95-118",
            "publishDate": "2023-02-07T05:00:00Z",
            "status": "Active",
            "title": "Pension Benefit Guaranty Corporation (PBGC): A Primer",
            "updateDate": "2025-04-18T20:33:49Z",
            "url": "https://v3/crsreport/95-118",
            "version": 145
        },
        {
            "contentType": "Reports",
            "id": "95-248",
            "publishDate": "1996-11-21T05:00:00Z",
            "status": "Archived",
            "title": "Cuba: U.S. Economic Sanctions Through 1996",
            "updateDate": "2025-04-18T19:29:59Z",
            "url": "https://v3/crsreport/95-248",
            "version": 104
        },
        {
            "contentType": "Reports",
            "id": "95-256",
            "publishDate": "1998-01-30T05:00:00Z",
            "status": "Archived",
            "title": "The Au Pair Program",
            "updateDate": "2025-04-18T19:34:42Z",
            "url": "https://v3/crsreport/95-256",
            "version": 102
        },
        {
            "contentType": "Reports",
            "id": "95-519",
            "publishDate": "2015-08-18T04:00:00Z",
            "status": "Active",
            "title": "Medal of Honor: History and Issues",
            "updateDate": "2025-04-18T18:22:57Z",
            "url": "https://v3/crsreport/95-519",
            "version": 111
        },
        {
            "contentType": "Reports",
            "id": "95-563",
            "publishDate": "2022-12-14T05:00:00Z",
            "status": "Active",
            "title": "The Legislative Process on the House Floor: An Introduction",
            "updateDate": "2025-04-18T20:28:55Z",
            "url": "https://v3/crsreport/95-563",
            "version": 110
        },
        {
            "contentType": "Reports",
            "id": "95-602",
            "publishDate": "1995-05-11T04:00:00Z",
            "status": "Archived",
            "title": "Haiti: Efforts to Restore President Aristide, 1991-1994",
            "updateDate": "2025-04-18T19:30:35Z",
            "url": "https://v3/crsreport/95-602",
            "version": 109
        },
        {
            "contentType": "Reports",
            "id": "95-710",
            "publishDate": "2016-02-02T05:00:00Z",
            "status": "Archived",
            "title": "The Fair Housing Act (FHA): A Legal Overview",
            "updateDate": "2025-04-18T21:57:32Z",
            "url": "https://v3/crsreport/95-710",
            "version": 122
        },
        {
            "contentType": "Reports",
            "id": "95-724",
            "publishDate": "2009-01-15T05:00:00Z",
            "status": "Archived",
            "title": "Abortion Law Development: A Brief Overview",
            "updateDate": "2025-04-18T21:54:55Z",
            "url": "https://v3/crsreport/95-724",
            "version": 108
        }
    ],
    "pagination": {
        "count": 13067,
        "next": "https://v3/crsreport?offset=20&limit=20&format=json"
    },
    "request": {
        "contentType": "application/json",
        "format": "json"
    }
}
