{
    "nominations": [
        {
            "citation": "PN387",
            "congress": 118,
            "latestAction": {
                "actionDate": "2023-03-06",
                "text": "Received in the Senate and referred to the Committee on Armed Services."
            },
            "nominationType": {
                "isMilitary": true
            },
            "number": 387,
            "organization": "Navy",
            "partNumber": "00",
            "receivedDate": "2023-03-06",
            "updateDate": "2023-03-07 05:25:12+00:00",
            "url": "https://api.congress.gov/v3/nomination/118/387?format=json"
        },
        {
            "citation": "PN386",
            "congress": 118,
            "latestAction": {
                "actionDate": "2023-03-06",
                "text": "Received in the Senate and referred to the Committee on Armed Services."
            },
            "nominationType": {
                "isMilitary": true
            },
            "number": 386,
            "organization": "Army",
            "partNumber": "00",
            "receivedDate": "2023-03-06",
            "updateDate": "2023-03-07 05:25:11+00:00",
            "url": "https://api.congress.gov/v3/nomination/118/386?format=json"
        },
        {
            "citation": "PN385",
            "congress": 118,
            "description": "Bryan David Hunt, of Virginia, a Career Member of the Senior Foreign Service, Class of Minister-Counselor, to be Ambassador Extraordinary and Plenipotentiary of the United States of America to the Republic of Sierra Leone.",
            "latestAction": {
                "actionDate": "2023-03-06",
                "text": "Received in the Senate and referred to the Committee on Foreign Relations."
            },
            "nominationType": {
                "isCivilian": true
            },
            "number": 385,
            "organization": "Department of State",
            "partNumber": "00",
            "receivedDate": "2023-03-06",
            "updateDate": "2023-03-07 05:25:11+00:00",
            "url": "https://api.congress.gov/v3/nomination/118/385?format=json"
        },
        {
            "citation": "PN384",
            "congress": 118,
            "description": "Felix R. Sanchez, of the District of Columbia, to be a Member of the Board of Directors of the Corporation for Public Broadcasting for a term expiring January 31, 2028, vice Robert A. Mandell, term expired.",
            "latestAction": {
                "actionDate": "2023-03-06",
                "text": "Received in the Senate and referred to the Committee on Commerce, Science, and Transportation."
            },
            "nominationType": {
                "isCivilian": true
            },
            "number": 384,
            "organization": "Corporation for Public Broadcasting",
            "partNumber": "00",
            "receivedDate": "2023-03-06",
            "updateDate": "2023-03-07 05:25:11+00:00",
            "url": "https://api.congress.gov/v3/nomination/118/384?format=json"
        },
        {
            "citation": "PN382",
            "congress": 118,
            "description": "Xochitl Torres Small, of New Mexico, to be Deputy Secretary of Agriculture, vice Jewel Hairston Bronaugh.",
            "latestAction": {
                "actionDate": "2023-03-02",
                "text": "Received in the Senate and referred to the Committee on Agriculture, Nutrition, and Forestry."
            },
            "nominationType": {
                "isCivilian": true
            },
            "number": 382,
            "organization": "Department of Agriculture",
            "partNumber": "00",
            "receivedDate": "2023-03-02",
            "updateDate": "2023-03-03 05:10:26+00:00",
            "url": "https://api.congress.gov/v3/nomination/118/382?format=json"
        },
        {
            "citation": "PN383",
            "congress": 118,
            "description": "Jared Bernstein, of Virginia, to be Chairman of the Council of Economic Advisers, vice Cecilia Elena Rouse.",
            "latestAction": {
                "actionDate": "2023-03-02",
                "text": "Received in the Senate and referred to the Committee on Banking, Housing, and Urban Affairs."
            },
            "nominationType": {
                "isCivilian": true
            },
            "number": 383,
            "organization": "Executive Office of the President",
            "partNumber": "00",
            "receivedDate": "2023-03-02",
            "updateDate": "2023-03-03 05:10:26+00:00",
            "url": "https://api.congress.gov/v3/nomination/118/383?format=json"
        },
        {
            "citation": "PN379",
            "congress": 118,
            "latestAction": {
                "actionDate": "2023-02-27",
                "text": "Received in the Senate and referred to the Committee on Armed Services."
            },
            "nominationType": {
                "isMilitary": true
            },
            "number": 379,
            "organization": "Air Force",
            "partNumber": "00",
            "receivedDate": "2023-02-27",
            "updateDate": "2023-02-28 05:25:15+00:00",
            "url": "https://api.congress.gov/v3/nomination/118/379?format=json"
        },
        {
            "citation": "PN375",
            "congress": 118,
            "description": "William W. Popp, of Missouri, a Career Member of the Senior Foreign Service, Class of Minister-Counselor, to be Ambassador Extraordinary and Plenipotentiary of the United States of America to the Republic of Uganda.",
            "latestAction": {
                "actionDate": "2023-02-27",
                "text": "Received in the Senate and referred to the Committee on Foreign Relations."
            },
            "nominationType": {
                "isCivilian": true
            },
            "number": 375,
            "organization": "Department of State",
            "partNumber": "00",
            "receivedDate": "2023-02-27",
            "updateDate": "2023-02-28 05:25:15+00:00",
            "url": "https://api.congress.gov/v3/nomination/118/375?format=json"
        },
        {
            "citation": "PN378",
            "congress": 118,
            "description": "Jabari Brooks Wamble, of Kansas, to be United States District Judge for the District of Kansas, vice Julie A. Robinson, retired.",
            "latestAction": {
                "actionDate": "2023-02-27",
                "text": "Received in the Senate and referred to the Committee on the Judiciary."
            },
            "nominationType": {
                "isCivilian": true
            },
            "number": 378,
            "organization": "The Judiciary",
            "partNumber": "00",
            "receivedDate": "2023-02-27",
            "updateDate": "2023-02-28 05:25:15+00:00",
            "url": "https://api.congress.gov/v3/nomination/118/378?format=json"
        },
        {
            "citation": "PN380",
            "congress": 118,
            "latestAction": {
                "actionDate": "2023-02-27",
                "text": "Received in the Senate and referred to the Committee on Armed Services."
            },
            "nominationType": {
                "isMilitary": true
            },
            "number": 380,
            "organization": "Air Force",
            "partNumber": "00",
            "receivedDate": "2023-02-27",
            "updateDate": "2023-02-28 05:25:15+00:00",
            "url": "https://api.congress.gov/v3/nomination/118/380?format=json"
        },
        {
            "citation": "PN377",
            "congress": 118,
            "description": "Molly R. Silfen, of the District of Columbia, to be a Judge of the United States Court of Federal Claims for a term of fifteen years, vice Susan G. Braden, term expired.",
            "latestAction": {
                "actionDate": "2023-02-27",
                "text": "Received in the Senate and referred to the Committee on the Judiciary."
            },
            "nominationType": {
                "isCivilian": true
            },
            "number": 377,
            "organization": "The Judiciary",
            "partNumber": "00",
            "receivedDate": "2023-02-27",
            "updateDate": "2023-02-28 05:25:15+00:00",
            "url": "https://api.congress.gov/v3/nomination/118/377?format=json"
        },
        {
            "citation": "PN381",
            "congress": 118,
            "latestAction": {
                "actionDate": "2023-02-27",
                "text": "Received in the Senate and referred to the Committee on Armed Services."
            },
            "nominationType": {
                "isMilitary": true
            },
            "number": 381,
            "organization": "Navy",
            "partNumber": "00",
            "receivedDate": "2023-02-27",
            "updateDate": "2023-02-28 05:25:15+00:00",
            "url": "https://api.congress.gov/v3/nomination/118/381?format=json"
        },
        {
            "citation": "PN376",
            "congress": 118,
            "description": "S. Kato Crews, of Colorado, to be United States District Judge for the District of Colorado, vice Raymond P. Moore, retiring.",
            "latestAction": {
                "actionDate": "2023-02-27",
                "text": "Received in the Senate and referred to the Committee on the Judiciary."
            },
            "nominationType": {
                "isCivilian": true
            },
            "number": 376,
            "organization": "The Judiciary",
            "partNumber": "00",
            "receivedDate": "2023-02-27",
            "updateDate": "2023-02-28 05:25:15+00:00",
            "url": "https://api.congress.gov/v3/nomination/118/376?format=json"
        },
        {
            "citation": "PN374",
            "congress": 118,
            "description": "Vernelle Trim FitzPatrick, of Virginia, a Career Member of the Senior Foreign Service, Class of Counselor, to be Ambassador Extraordinary and Plenipotentiary of the United States of America to the Gabonese Republic.",
            "latestAction": {
                "actionDate": "2023-02-27",
                "text": "Received in the Senate and referred to the Committee on Foreign Relations."
            },
            "nominationType": {
                "isCivilian": true
            },
            "number": 374,
            "organization": "Department of State",
            "partNumber": "00",
            "receivedDate": "2023-02-27",
            "updateDate": "2023-02-28 05:25:15+00:00",
            "url": "https://api.congress.gov/v3/nomination/118/374?format=json"
        },
        {
            "citation": "PN365",
            "congress": 118,
            "latestAction": {
                "actionDate": "2023-02-16",
                "text": "Received in the Senate and referred to the Committee on Armed Services."
            },
            "nominationType": {
                "isMilitary": true
            },
            "number": 365,
            "organization": "Navy",
            "partNumber": "00",
            "receivedDate": "2023-02-16",
            "updateDate": "2023-02-17 05:25:24+00:00",
            "url": "https://api.congress.gov/v3/nomination/118/365?format=json"
        },
        {
            "citation": "PN363",
            "congress": 118,
            "latestAction": {
                "actionDate": "2023-02-16",
                "text": "Received in the Senate and referred to the Committee on Armed Services."
            },
            "nominationType": {
                "isMilitary": true
            },
            "number": 363,
            "organization": "Marine Corps",
            "partNumber": "00",
            "receivedDate": "2023-02-16",
            "updateDate": "2023-02-17 05:25:24+00:00",
            "url": "https://api.congress.gov/v3/nomination/118/363?format=json"
        },
        {
            "citation": "PN366",
            "congress": 118,
            "latestAction": {
                "actionDate": "2023-02-16",
                "text": "Received in the Senate and referred to the Committee on Armed Services."
            },
            "nominationType": {
                "isMilitary": true
            },
            "number": 366,
            "organization": "Navy",
            "partNumber": "00",
            "receivedDate": "2023-02-16",
            "updateDate": "2023-02-17 05:25:24+00:00",
            "url": "https://api.congress.gov/v3/nomination/118/366?format=json"
        },
        {
            "citation": "PN359",
            "congress": 118,
            "latestAction": {
                "actionDate": "2023-02-16",
                "text": "Received in the Senate and referred to the Committee on Armed Services."
            },
            "nominationType": {
                "isMilitary": true
            },
            "number": 359,
            "organization": "Army",
            "partNumber": "00",
            "receivedDate": "2023-02-16",
            "updateDate": "2023-02-17 05:25:24+00:00",
            "url": "https://api.congress.gov/v3/nomination/118/359?format=json"
        },
        {
            "citation": "PN362",
            "congress": 118,
            "latestAction": {
                "actionDate": "2023-02-16",
                "text": "Received in the Senate and referred to the Committee on Armed Services."
            },
            "nominationType": {
                "isMilitary": true
            },
            "number": 362,
            "organization": "Army",
            "partNumber": "00",
            "receivedDate": "2023-02-16",
            "updateDate": "2023-02-17 05:25:24+00:00",
            "url": "https://api.congress.gov/v3/nomination/118/362?format=json"
        },
        {
            "citation": "PN364",
            "congress": 118,
            "latestAction": {
                "actionDate": "2023-02-16",
                "text": "Received in the Senate and referred to the Committee on Armed Services."
            },
            "nominationType": {
                "isMilitary": true
            },
            "number": 364,
            "organization": "Navy",
            "partNumber": "00",
            "receivedDate": "2023-02-16",
            "updateDate": "2023-02-17 05:25:24+00:00",
            "url": "https://api.congress.gov/v3/nomination/118/364?format=json"
        }
    ],
    "pagination": {
        "count": 41353,
        "next": "https://api.congress.gov/v3/nomination?offset=20&limit=20&format=json"
    },
    "request": {
        "contentType": "application/json",
        "format": "json"
    }
}
