{
    "members": [
        {
            "member": {
                "bioguideId": "M001227",
                "depiction": {
                    "attribution": "Image courtesy of the Member",
                    "imageUrl": "https://www.congress.gov/img/member/m001227_200.jpg"
                },
                "district": 4,
                "name": "McClellan, Jennifer L.",
                "party": "Democratic",
                "served": {
                    "House": [
                        {
                            "start": 2023
                        }
                    ]
                },
                "state": "Virginia",
                "url": "https://api.congress.gov/v3/member/M001227?format=json"
            }
        },
        {
            "member": {
                "bioguideId": "P000620",
                "depiction": {
                    "attribution": "Image courtesy of the Member",
                    "imageUrl": "https://www.congress.gov/img/member/p000620_200.jpg"
                },
                "district": 7,
                "name": "Pettersen, Brittany",
                "party": "Democratic",
                "served": {
                    "House": [
                        {
                            "start": 2023
                        }
                    ]
                },
                "state": "Colorado",
                "url": "https://api.congress.gov/v3/member/P000620?format=json"
            }
        },
        {
            "member": {
                "bioguideId": "D000416",
                "depiction": {
                    "attribution": "Collection of the U.S. House of Representatives",
                    "imageUrl": "https://www.congress.gov/img/member/d000416_200.jpg"
                },
                "district": 11,
                "name": "Donnelly, Brian J.",
                "party": "Democratic",
                "served": {
                    "House": [
                        {
                            "end": 1993,
                            "start": 1979
                        }
                    ]
                },
                "state": "Massachusetts",
                "url": "https://api.congress.gov/v3/member/D000416?format=json"
            }
        },
        {
            "member": {
                "bioguideId": "B000966",
                "depiction": {
                    "attribution": "<a href=\"http://www.senate.gov/artandhistory/history/common/generic/Photo_Collection_of_the_Senate_Historical_Office.htm\">Courtesy U.S. Senate Historical Office<\/a>",
                    "imageUrl": "https://www.congress.gov/img/member/b000966_200.jpg"
                },
                "name": "Broyhill, James T.",
                "party": "Republican",
                "served": {
                    "House": [
                        {
                            "end": 1986,
                            "start": 1963
                        }
                    ],
                    "Senate": [
                        {
                            "end": 1987,
                            "start": 1986
                        }
                    ]
                },
                "state": "North Carolina",
                "url": "https://api.congress.gov/v3/member/B000966?format=json"
            }
        },
        {
            "member": {
                "bioguideId": "O000085",
                "depiction": {
                    "attribution": "Collection of the U.S. House of Representatives",
                    "imageUrl": "https://www.congress.gov/img/member/o000085_200.jpg"
                },
                "district": 1,
                "name": "Olver, John W.",
                "party": "Democratic",
                "served": {
                    "House": [
                        {
                            "end": 2013,
                            "start": 1991
                        }
                    ]
                },
                "state": "Massachusetts",
                "url": "https://api.congress.gov/v3/member/O000085?format=json"
            }
        },
        {
            "member": {
                "bioguideId": "A000017",
                "depiction": {
                    "attribution": "<a href=\"http://www.senate.gov/artandhistory/history/common/generic/Photo_Collection_of_the_Senate_Historical_Office.htm\">Courtesy U.S. Senate Historical Office<\/a>",
                    "imageUrl": "https://www.congress.gov/img/member/a000017_200.jpg"
                },
                "name": "Abourezk, James",
                "party": "Democratic",
                "served": {
                    "House": [
                        {
                            "end": 1973,
                            "start": 1971
                        }
                    ],
                    "Senate": [
                        {
                            "end": 1979,
                            "start": 1973
                        }
                    ]
                },
                "state": "South Dakota",
                "url": "https://api.congress.gov/v3/member/A000017?format=json"
            }
        },
        {
            "member": {
                "bioguideId": "V000137",
                "depiction": {
                    "attribution": "Official U.S. Senate Photo",
                    "imageUrl": "https://www.congress.gov/img/member/v000137_200.jpg"
                },
                "name": "Vance, J. D.",
                "party": "Republican",
                "served": {
                    "Senate": [
                        {
                            "start": 2023
                        }
                    ]
                },
                "state": "Ohio",
                "url": "https://api.congress.gov/v3/member/V000137?format=json"
            }
        },
        {
            "member": {
                "bioguideId": "F000479",
                "depiction": {
                    "attribution": "Official U.S. Senate Photo",
                    "imageUrl": "https://www.congress.gov/img/member/f000479_200.jpg"
                },
                "name": "Fetterman, John",
                "party": "Democratic",
                "served": {
                    "Senate": [
                        {
                            "start": 2023
                        }
                    ]
                },
                "state": "Pennsylvania",
                "url": "https://api.congress.gov/v3/member/F000479?format=json"
            }
        },
        {
            "member": {
                "bioguideId": "T000278",
                "depiction": {
                    "attribution": "<a href=\"http://www.senate.gov/artandhistory/history/common/generic/Photo_Collection_of_the_Senate_Historical_Office.htm\">Courtesy U.S. Senate Historical Office<\/a>",
                    "imageUrl": "https://www.congress.gov/img/member/t000278_200.jpg"
                },
                "name": "Tuberville, Tommy",
                "party": "Republican",
                "served": {
                    "Senate": [
                        {
                            "start": 2021
                        }
                    ]
                },
                "state": "Alabama",
                "url": "https://api.congress.gov/v3/member/T000278?format=json"
            }
        },
        {
            "member": {
                "bioguideId": "P000603",
                "depiction": {
                    "attribution": "<a href=\"http://www.senate.gov/artandhistory/history/common/generic/Photo_Collection_of_the_Senate_Historical_Office.htm\">Courtesy U.S. Senate Historical Office<\/a>",
                    "imageUrl": "https://www.congress.gov/img/member/p000603_200.jpg"
                },
                "name": "Paul, Rand",
                "party": "Republican",
                "served": {
                    "Senate": [
                        {
                            "start": 2011
                        }
                    ]
                },
                "state": "Kentucky",
                "url": "https://api.congress.gov/v3/member/P000603?format=json"
            }
        },
        {
            "member": {
                "bioguideId": "S001220",
                "district": 5,
                "name": "Strong, Dale W.",
                "party": "Republican",
                "served": {
                    "House": [
                        {
                            "start": 2023
                        }
                    ]
                },
                "state": "Alabama",
                "url": "https://api.congress.gov/v3/member/S001220?format=json"
            }
        },
        {
            "member": {
                "bioguideId": "R000606",
                "depiction": {
                    "attribution": "Image courtesy of the Member",
                    "imageUrl": "https://www.congress.gov/img/member/r000606_200.jpg"
                },
                "district": 8,
                "name": "Raskin, Jamie",
                "party": "Democratic",
                "served": {
                    "House": [
                        {
                            "start": 2017
                        }
                    ]
                },
                "state": "Maryland",
                "url": "https://api.congress.gov/v3/member/R000606?format=json"
            }
        },
        {
            "member": {
                "bioguideId": "W000437",
                "depiction": {
                    "attribution": "<a href=\"http://www.senate.gov/artandhistory/history/common/generic/Photo_Collection_of_the_Senate_Historical_Office.htm\">Courtesy U.S. Senate Historical Office<\/a>",
                    "imageUrl": "https://www.congress.gov/img/member/w000437_200.jpg"
                },
                "name": "Wicker, Roger F.",
                "party": "Republican",
                "served": {
                    "House": [
                        {
                            "end": 2007,
                            "start": 1995
                        }
                    ],
                    "Senate": [
                        {
                            "start": 2007
                        }
                    ]
                },
                "state": "Mississippi",
                "url": "https://api.congress.gov/v3/member/W000437?format=json"
            }
        },
        {
            "member": {
                "bioguideId": "D000566",
                "depiction": {
                    "attribution": "<a href=\"http://www.senate.gov/artandhistory/history/common/generic/Photo_Collection_of_the_Senate_Historical_Office.htm\">Courtesy U.S. Senate Historical Office<\/a>",
                    "imageUrl": "https://www.congress.gov/img/member/https://congress.gov/img/member/d000566_200.jpg"
                },
                "name": "Durenberger, Dave",
                "party": "Republican",
                "served": {
                    "Senate": [
                        {
                            "end": 1995,
                            "start": 1977
                        }
                    ]
                },
                "state": "Minnesota",
                "url": "https://api.congress.gov/v3/member/D000566?format=json"
            }
        },
        {
            "member": {
                "bioguideId": "C001075",
                "depiction": {
                    "attribution": "<a href=\"http://www.senate.gov/artandhistory/history/common/generic/Photo_Collection_of_the_Senate_Historical_Office.htm\">Courtesy U.S. Senate Historical Office<\/a>",
                    "imageUrl": "https://www.congress.gov/img/member/c001075_200.jpg"
                },
                "name": "Cassidy, Bill",
                "party": "Republican",
                "served": {
                    "House": [
                        {
                            "end": 2015,
                            "start": 2009
                        }
                    ],
                    "Senate": [
                        {
                            "start": 2015
                        }
                    ]
                },
                "state": "Louisiana",
                "url": "https://api.congress.gov/v3/member/C001075?format=json"
            }
        },
        {
            "member": {
                "bioguideId": "W000828",
                "depiction": {
                    "attribution": "Image courtesy of the Member",
                    "imageUrl": "https://www.congress.gov/img/member/w000828_200.jpg"
                },
                "district": 22,
                "name": "Williams, Brandon",
                "party": "Republican",
                "served": {
                    "House": [
                        {
                            "start": 2023
                        }
                    ]
                },
                "state": "New York",
                "url": "https://api.congress.gov/v3/member/W000828?format=json"
            }
        },
        {
            "member": {
                "bioguideId": "V000136",
                "depiction": {
                    "attribution": "Image courtesy of the Member",
                    "imageUrl": "https://www.congress.gov/img/member/v000136_200.jpg"
                },
                "district": 2,
                "name": "Vasquez, Gabe",
                "party": "Democratic",
                "served": {
                    "House": [
                        {
                            "start": 2023
                        }
                    ]
                },
                "state": "New Mexico",
                "url": "https://api.congress.gov/v3/member/V000136?format=json"
            }
        },
        {
            "member": {
                "bioguideId": "V000135",
                "depiction": {
                    "attribution": "Image courtesy of the Member",
                    "imageUrl": "https://www.congress.gov/img/member/v000135_200.jpg"
                },
                "district": 3,
                "name": "Van Orden, Derrick",
                "party": "Republican",
                "served": {
                    "House": [
                        {
                            "start": 2023
                        }
                    ]
                },
                "state": "Wisconsin",
                "url": "https://api.congress.gov/v3/member/V000135?format=json"
            }
        },
        {
            "member": {
                "bioguideId": "T000487",
                "depiction": {
                    "attribution": "Image courtesy of the Member",
                    "imageUrl": "https://www.congress.gov/img/member/t000487_200.jpg"
                },
                "district": 2,
                "name": "Tokuda, Jill N.",
                "party": "Democratic",
                "served": {
                    "House": [
                        {
                            "start": 2023
                        }
                    ]
                },
                "state": "Hawaii",
                "url": "https://api.congress.gov/v3/member/T000487?format=json"
            }
        },
        {
            "member": {
                "bioguideId": "T000488",
                "depiction": {
                    "attribution": "Image courtesy of the Member",
                    "imageUrl": "https://www.congress.gov/img/member/t000488_200.jpg"
                },
                "district": 13,
                "name": "Thanedar, Shri",
                "party": "Democratic",
                "served": {
                    "House": [
                        {
                            "start": 2023
                        }
                    ]
                },
                "state": "Michigan",
                "url": "https://api.congress.gov/v3/member/T000488?format=json"
            }
        }
    ],
    "pagination": {
        "count": 2515,
        "next": "https://api.congress.gov/v3/member?offset=20&limit=20&format=json"
    },
    "request": {
        "contentType": "application/json",
        "format": "json"
    }
}
