{
    "houseRollCallVotes": [
        {
            "congress": 119,
            "identifier": 1191202596,
            "legislationNumber": "18",
            "legislationType": "SJRES",
            "legislationUrl": "https://www.congress.gov/bill/119/senate-joint-resolution/18",
            "result": "Passed",
            "rollCallNumber": 96,
            "sessionNumber": 1,
            "sourceDataURL": "https://clerk.house.gov/evs/2025/roll096.xml",
            "startDate": "2025-04-09T16:23:00-04:00",
            "updateDate": "2025-05-13T19:09:58-04:00",
            "url": "https://v3/house-vote/119/1/96",
            "voteType": "Yea-and-Nay"
        },
        {
            "amendmentNumber": "215",
            "amendmentType": "HAMDT",
            "congress": 118,
            "identifier": 11812023292,
            "legislationUrl": "https://www.congress.gov/amendment/118/house-amendment/215",
            "result": "Passed",
            "rollCallNumber": 292,
            "sessionNumber": 1,
            "sourceDataURL": "https://clerk.house.gov/evs/2023/roll292.xml",
            "startDate": "2023-07-12T13:53:00-04:00",
            "updateDate": "2025-05-13T16:09:53-04:00",
            "url": "https://v3/house-vote/118/1/292",
            "voteType": "Yea-and-Nay"
        },
        {
            "congress": 118,
            "identifier": 11812023294,
            "legislationNumber": "582",
            "legislationType": "HRES",
            "legislationUrl": "https://www.congress.gov/bill/118/house-resolution/582",
            "result": "Passed",
            "rollCallNumber": 294,
            "sessionNumber": 1,
            "sourceDataURL": "https://clerk.house.gov/evs/2023/roll294.xml",
            "startDate": "2023-07-12T14:09:00-04:00",
            "updateDate": "2025-05-13T16:10:12-04:00",
            "url": "https://v3/house-vote/118/1/294",
            "voteType": "Recorded Vote"
        },
        {
            "congress": 118,
            "identifier": 11812023296,
            "legislationNumber": "583",
            "legislationType": "HRES",
            "legislationUrl": "https://www.congress.gov/bill/118/house-resolution/583",
            "result": "Passed",
            "rollCallNumber": 296,
            "sessionNumber": 1,
            "sourceDataURL": "https://clerk.house.gov/evs/2023/roll296.xml",
            "startDate": "2023-07-13T14:05:00-04:00",
            "updateDate": "2025-05-13T16:10:31-04:00",
            "url": "https://v3/house-vote/118/1/296",
            "voteType": "Recorded Vote"
        },
        {
            "amendmentAuthor": "Davidson of Ohio Amendment No. 51",
            "amendmentNumber": "246",
            "amendmentType": "HAMDT",
            "congress": 118,
            "identifier": 11812023320,
            "legislationUrl": "https://www.congress.gov/amendment/118/house-amendment/246",
            "result": "Failed",
            "rollCallNumber": 320,
            "sessionNumber": 1,
            "sourceDataURL": "https://clerk.house.gov/evs/2023/roll320.xml",
            "startDate": "2023-07-13T23:05:00-04:00",
            "updateDate": "2025-05-13T16:15:21-04:00",
            "url": "https://v3/house-vote/118/1/320",
            "voteType": "Recorded Vote"
        },
        {
            "amendmentAuthor": "Biggs of Arizona Amendment No. 55",
            "amendmentNumber": "248",
            "amendmentType": "HAMDT",
            "congress": 118,
            "identifier": 11812023322,
            "legislationUrl": "https://www.congress.gov/amendment/118/house-amendment/248",
            "result": "Failed",
            "rollCallNumber": 322,
            "sessionNumber": 1,
            "sourceDataURL": "https://clerk.house.gov/evs/2023/roll322.xml",
            "startDate": "2023-07-13T23:11:00-04:00",
            "updateDate": "2025-05-13T16:15:40-04:00",
            "url": "https://v3/house-vote/118/1/322",
            "voteType": "Recorded Vote"
        },
        {
            "congress": 118,
            "identifier": 11812023331,
            "legislationNumber": "597",
            "legislationType": "HRES",
            "legislationUrl": "https://www.congress.gov/bill/118/house-resolution/597",
            "result": "Passed",
            "rollCallNumber": 331,
            "sessionNumber": 1,
            "sourceDataURL": "https://clerk.house.gov/evs/2023/roll331.xml",
            "startDate": "2023-07-18T13:39:00-04:00",
            "updateDate": "2025-05-13T16:17:14-04:00",
            "url": "https://v3/house-vote/118/1/331",
            "voteType": "Yea-and-Nay"
        },
        {
            "amendmentAuthor": "Kean of New Jersey Part A Amendment No. 50",
            "amendmentNumber": "274",
            "amendmentType": "HAMDT",
            "congress": 118,
            "identifier": 11812023350,
            "legislationUrl": "https://www.congress.gov/amendment/118/house-amendment/274",
            "result": "Agreed to",
            "rollCallNumber": 350,
            "sessionNumber": 1,
            "sourceDataURL": "https://clerk.house.gov/evs/2023/roll350.xml",
            "startDate": "2023-07-19T22:09:00-04:00",
            "updateDate": "2025-05-13T16:20:14-04:00",
            "url": "https://v3/house-vote/118/1/350",
            "voteType": "Recorded Vote"
        },
        {
            "amendmentAuthor": "McClintock of California Part A Amendment No. 62",
            "amendmentNumber": "276",
            "amendmentType": "HAMDT",
            "congress": 118,
            "identifier": 11812023351,
            "legislationUrl": "https://www.congress.gov/amendment/118/house-amendment/276",
            "result": "Failed",
            "rollCallNumber": 351,
            "sessionNumber": 1,
            "sourceDataURL": "https://clerk.house.gov/evs/2023/roll351.xml",
            "startDate": "2023-07-19T22:12:00-04:00",
            "updateDate": "2025-05-13T16:20:22-04:00",
            "url": "https://v3/house-vote/118/1/351",
            "voteType": "Recorded Vote"
        },
        {
            "amendmentAuthor": "Miller of Illinois Part A Amendment No. 64",
            "amendmentNumber": "277",
            "amendmentType": "HAMDT",
            "congress": 118,
            "identifier": 11812023352,
            "legislationUrl": "https://www.congress.gov/amendment/118/house-amendment/277",
            "result": "Failed",
            "rollCallNumber": 352,
            "sessionNumber": 1,
            "sourceDataURL": "https://clerk.house.gov/evs/2023/roll352.xml",
            "startDate": "2023-07-19T22:16:00-04:00",
            "updateDate": "2025-05-13T16:20:30-04:00",
            "url": "https://v3/house-vote/118/1/352",
            "voteType": "Recorded Vote"
        },
        {
            "congress": 118,
            "identifier": 11812023367,
            "legislationNumber": "614",
            "legislationType": "HRES",
            "legislationUrl": "https://www.congress.gov/bill/118/house-resolution/614",
            "result": "Passed",
            "rollCallNumber": 367,
            "sessionNumber": 1,
            "sourceDataURL": "https://clerk.house.gov/evs/2023/roll367.xml",
            "startDate": "2023-07-26T13:51:00-04:00",
            "updateDate": "2025-05-13T16:22:48-04:00",
            "url": "https://v3/house-vote/118/1/367",
            "voteType": "Yea-and-Nay"
        },
        {
            "congress": 118,
            "identifier": 11812023379,
            "legislationNumber": "4366",
            "legislationType": "HR",
            "legislationUrl": "https://www.congress.gov/bill/118/house-bill/4366",
            "result": "Failed",
            "rollCallNumber": 379,
            "sessionNumber": 1,
            "sourceDataURL": "https://clerk.house.gov/evs/2023/roll379.xml",
            "startDate": "2023-07-27T13:43:00-04:00",
            "updateDate": "2025-05-13T16:25:06-04:00",
            "url": "https://v3/house-vote/118/1/379",
            "voteType": "Yea-and-Nay"
        },
        {
            "congress": 118,
            "identifier": 11812023381,
            "legislationNumber": "9",
            "legislationType": "SJRES",
            "legislationUrl": "https://www.congress.gov/bill/118/senate-joint-resolution/9",
            "result": "Passed",
            "rollCallNumber": 381,
            "sessionNumber": 1,
            "sourceDataURL": "https://clerk.house.gov/evs/2023/roll381.xml",
            "startDate": "2023-07-27T14:09:00-04:00",
            "updateDate": "2025-05-13T16:25:37-04:00",
            "url": "https://v3/house-vote/118/1/381",
            "voteType": "Yea-and-Nay"
        },
        {
            "congress": 118,
            "identifier": 11812023401,
            "legislationNumber": "1530",
            "legislationType": "HR",
            "legislationUrl": "https://www.congress.gov/bill/118/house-bill/1530",
            "result": "Passed",
            "rollCallNumber": 401,
            "sessionNumber": 1,
            "sourceDataURL": "https://clerk.house.gov/evs/2023/roll401.xml",
            "startDate": "2023-09-20T14:27:00-04:00",
            "updateDate": "2025-05-13T16:29:47-04:00",
            "url": "https://v3/house-vote/118/1/401",
            "voteType": "2/3 Yea-And-Nay"
        },
        {
            "congress": 118,
            "identifier": 11812023402,
            "legislationNumber": "712",
            "legislationType": "HRES",
            "legislationUrl": "https://www.congress.gov/bill/118/house-resolution/712",
            "result": "Passed",
            "rollCallNumber": 402,
            "sessionNumber": 1,
            "sourceDataURL": "https://clerk.house.gov/evs/2023/roll402.xml",
            "startDate": "2023-09-21T10:55:00-04:00",
            "updateDate": "2025-05-13T16:29:57-04:00",
            "url": "https://v3/house-vote/118/1/402",
            "voteType": "Yea-and-Nay"
        },
        {
            "congress": 118,
            "identifier": 11812023403,
            "legislationNumber": "712",
            "legislationType": "HRES",
            "legislationUrl": "https://www.congress.gov/bill/118/house-resolution/712",
            "result": "Failed",
            "rollCallNumber": 403,
            "sessionNumber": 1,
            "sourceDataURL": "https://clerk.house.gov/evs/2023/roll403.xml",
            "startDate": "2023-09-21T11:33:00-04:00",
            "updateDate": "2025-05-13T16:30:08-04:00",
            "url": "https://v3/house-vote/118/1/403",
            "voteType": "Recorded Vote"
        },
        {
            "amendmentAuthor": "Good of Virginia Part F Amendment No. 95",
            "amendmentNumber": "347",
            "amendmentType": "HAMDT",
            "congress": 118,
            "identifier": 11812023427,
            "legislationUrl": "https://www.congress.gov/amendment/118/house-amendment/347",
            "result": "Failed",
            "rollCallNumber": 427,
            "sessionNumber": 1,
            "sourceDataURL": "https://clerk.house.gov/evs/2023/roll427.xml",
            "startDate": "2023-09-27T17:33:00-04:00",
            "updateDate": "2025-05-13T16:34:11-04:00",
            "url": "https://v3/house-vote/118/1/427",
            "voteType": "Recorded Vote"
        },
        {
            "congress": 119,
            "identifier": 11912025116,
            "legislationNumber": "36",
            "legislationType": "HR",
            "legislationUrl": "https://www.congress.gov/bill/119/house-bill/36",
            "result": "Passed",
            "rollCallNumber": 116,
            "sessionNumber": 1,
            "sourceDataURL": "https://clerk.house.gov/evs/2025/roll116.xml",
            "startDate": "2025-05-05T18:56:00-04:00",
            "updateDate": "2025-05-13T18:54:50-04:00",
            "url": "https://v3/house-vote/119/1/116",
            "voteType": "2/3 Yea-And-Nay"
        },
        {
            "congress": 119,
            "identifier": 11912025122,
            "legislationNumber": "276",
            "legislationType": "HR",
            "legislationUrl": "https://www.congress.gov/bill/119/house-bill/276",
            "result": "Passed",
            "rollCallNumber": 122,
            "sessionNumber": 1,
            "sourceDataURL": "https://clerk.house.gov/evs/2025/roll122.xml",
            "startDate": "2025-05-08T10:42:00-04:00",
            "updateDate": "2025-05-13T18:56:12-04:00",
            "url": "https://v3/house-vote/119/1/122",
            "voteType": "Recorded Vote"
        },
        {
            "congress": 119,
            "identifier": 119120252,
            "result": "Elected Speaker Name",
            "rollCallNumber": 2,
            "sessionNumber": 1,
            "sourceDataURL": "https://clerk.house.gov/evs/2025/roll002.xml",
            "startDate": "2025-01-03T14:33:00-05:00",
            "updateDate": "2025-05-13T18:57:31-04:00",
            "url": "https://v3/house-vote/119/1/2",
            "voteType": "Yea-and-Nay"
        }
    ],
    "pagination": {
        "count": 1386,
        "next": "https://v3/house-vote?offset=20&limit=20&format=json"
    },
    "request": {
        "contentType": "application/json",
        "format": "json"
    }
}
