{
    "articles": [
        {
            "name": "Daily Digest",
            "sectionArticles": [
                {
                    "endPage": "D94",
                    "startPage": "D93",
                    "text": [
                        {
                            "type": "Formatted Text",
                            "url": "https://www.congress.gov/117/crec/2021/02/04/167/21/modified/CREC-2021-02-04-pt1-PgD93-3.htm"
                        },
                        {
                            "type": "PDF",
                            "url": "https://www.congress.gov/117/crec/2021/02/04/167/21/CREC-2021-02-04-pt1-PgD93-3.pdf"
                        },
                        {
                            "type": "Formatted Text",
                            "url": "https://www.congress.gov/117/crec/2021/02/04/modified/CREC-2021-02-04-pt2-PgD93-3.htm"
                        },
                        {
                            "type": "PDF",
                            "url": "https://www.congress.gov/117/crec/2021/02/04/CREC-2021-02-04-pt2-PgD93-3.pdf"
                        }
                    ],
                    "title": "Daily Digest/Next Meeting of the SENATE + Next Meeting of the HOUSE OF REPRESENTATIVES + Other End Matter; Congressional Record Vol. 167, No. 21"
                },
                {
                    "endPage": "D93",
                    "startPage": "D93",
                    "text": [
                        {
                            "type": "Formatted Text",
                            "url": "https://www.congress.gov/117/crec/2021/02/04/167/21/modified/CREC-2021-02-04-pt1-PgD93-2.htm"
                        },
                        {
                            "type": "Formatted Text",
                            "url": "https://www.congress.gov/117/crec/2021/02/04/modified/CREC-2021-02-04-pt2-PgD93-2.htm"
                        },
                        {
                            "type": "PDF",
                            "url": "https://www.congress.gov/117/crec/2021/02/04/CREC-2021-02-04-pt2-PgD93-2.pdf"
                        },
                        {
                            "type": "PDF",
                            "url": "https://www.congress.gov/117/crec/2021/02/04/167/21/CREC-2021-02-04-pt1-PgD93-2.pdf"
                        }
                    ],
                    "title": "Daily Digest/COMMITTEE MEETINGS FOR 2021-02-05; Congressional Record Vol. 167, No. 21"
                },
                {
                    "endPage": "D93",
                    "startPage": "D93",
                    "text": [
                        {
                            "type": "Formatted Text",
                            "url": "https://www.congress.gov/117/crec/2021/02/04/167/21/modified/CREC-2021-02-04-pt1-PgD93.htm"
                        },
                        {
                            "type": "PDF",
                            "url": "https://www.congress.gov/117/crec/2021/02/04/167/21/CREC-2021-02-04-pt1-PgD93.pdf"
                        },
                        {
                            "type": "Formatted Text",
                            "url": "https://www.congress.gov/117/crec/2021/02/04/modified/CREC-2021-02-04-pt2-PgD93.htm"
                        },
                        {
                            "type": "PDF",
                            "url": "https://www.congress.gov/117/crec/2021/02/04/CREC-2021-02-04-pt2-PgD93.pdf"
                        }
                    ],
                    "title": "Daily Digest/House Committee Meetings; Congressional Record Vol. 167, No. 21"
                },
                {
                    "endPage": "D94",
                    "startPage": "D92",
                    "text": [
                        {
                            "type": "Formatted Text",
                            "url": "https://www.congress.gov/117/crec/2021/02/04/167/21/modified/CREC-2021-02-04-pt2-PgD92-7.htm"
                        },
                        {
                            "type": "PDF",
                            "url": "https://www.congress.gov/117/crec/2021/02/04/167/21/CREC-2021-02-04-pt2-PgD92-7.pdf"
                        }
                    ],
                    "title": "Daily Digest/Next Meeting of the SENATE + Next Meeting of the HOUSE OF REPRESENTATIVES + Other End Matter; Congressional Record Vol. 167, No. 21"
                },
                {
                    "endPage": "D92",
                    "startPage": "D92",
                    "text": [
                        {
                            "type": "PDF",
                            "url": "https://www.congress.gov/117/crec/2021/02/04/167/21/CREC-2021-02-04-pt2-PgD92-6.pdf"
                        },
                        {
                            "type": "Formatted Text",
                            "url": "https://www.congress.gov/117/crec/2021/02/04/167/21/modified/CREC-2021-02-04-pt2-PgD92-6.htm"
                        }
                    ],
                    "title": "Daily Digest/COMMITTEE MEETINGS FOR 2021-02-05; Congressional Record Vol. 167, No. 21"
                },
                {
                    "endPage": "D92",
                    "startPage": "D92",
                    "text": [
                        {
                            "type": "PDF",
                            "url": "https://www.congress.gov/117/crec/2021/02/04/167/21/CREC-2021-02-04-pt2-PgD92-5.pdf"
                        },
                        {
                            "type": "Formatted Text",
                            "url": "https://www.congress.gov/117/crec/2021/02/04/167/21/modified/CREC-2021-02-04-pt2-PgD92-5.htm"
                        }
                    ],
                    "title": "Daily Digest/House Committee Meetings; Congressional Record Vol. 167, No. 21"
                },
                {
                    "endPage": "D92",
                    "startPage": "D92",
                    "text": [
                        {
                            "type": "PDF",
                            "url": "https://www.congress.gov/117/crec/2021/02/04/167/21/CREC-2021-02-04-pt2-PgD92-4.pdf"
                        },
                        {
                            "type": "Formatted Text",
                            "url": "https://www.congress.gov/117/crec/2021/02/04/167/21/modified/CREC-2021-02-04-pt2-PgD92-4.htm"
                        }
                    ],
                    "title": "Daily Digest/House of Representatives; Congressional Record Vol. 167, No. 21"
                },
                {
                    "endPage": "D92",
                    "startPage": "D92",
                    "text": [
                        {
                            "type": "Formatted Text",
                            "url": "https://www.congress.gov/117/crec/2021/02/04/167/21/modified/CREC-2021-02-04-pt2-PgD92-3.htm"
                        },
                        {
                            "type": "PDF",
                            "url": "https://www.congress.gov/117/crec/2021/02/04/167/21/CREC-2021-02-04-pt2-PgD92-3.pdf"
                        }
                    ],
                    "title": "Daily Digest/Senate Committee Meetings; Congressional Record Vol. 167, No. 21"
                },
                {
                    "endPage": "D92",
                    "startPage": "D90",
                    "text": [
                        {
                            "type": "PDF",
                            "url": "https://www.congress.gov/117/crec/2021/02/04/167/21/CREC-2021-02-04-pt2-PgD90.pdf"
                        },
                        {
                            "type": "Formatted Text",
                            "url": "https://www.congress.gov/117/crec/2021/02/04/167/21/modified/CREC-2021-02-04-pt2-PgD90.htm"
                        }
                    ],
                    "title": "Daily Digest/Nomination Received: Senate received the following nomination: Samantha Power, of Massachusetts, to be Administrator of the United States Agency for International Development. Page S559; Congressional Record Vol. 167, No. 21"
                },
                {
                    "endPage": "D90",
                    "startPage": "D89",
                    "text": [
                        {
                            "type": "Formatted Text",
                            "url": "https://www.congress.gov/117/crec/2021/02/04/167/21/modified/CREC-2021-02-04-pt2-PgD89-2.htm"
                        },
                        {
                            "type": "PDF",
                            "url": "https://www.congress.gov/117/crec/2021/02/04/167/21/CREC-2021-02-04-pt2-PgD89-2.pdf"
                        }
                    ],
                    "title": "Daily Digest/Adopted:\n  By 90 yeas to 10 nays (Vote No. 14), Sinema (for Wicker) Amendment \nNo. 261, to establish a deficit-neutral reserve fund relating to \nestablishing a fund to provide grants...; Congressional Record Vol. 167, No. 21"
                },
                {
                    "endPage": "D93",
                    "startPage": "D92",
                    "text": [
                        {
                            "type": "Formatted Text",
                            "url": "https://www.congress.gov/117/crec/2021/02/04/167/21/modified/CREC-2021-02-04-pt1-PgD92-2.htm"
                        },
                        {
                            "type": "Formatted Text",
                            "url": "https://www.congress.gov/117/crec/2021/02/04/167/21/modified/CREC-2021-02-04-pt2-PgD92-2.htm"
                        },
                        {
                            "type": "PDF",
                            "url": "https://www.congress.gov/117/crec/2021/02/04/167/21/CREC-2021-02-04-pt2-PgD92-2.pdf"
                        },
                        {
                            "type": "PDF",
                            "url": "https://www.congress.gov/117/crec/2021/02/04/167/21/CREC-2021-02-04-pt1-PgD92-2.pdf"
                        }
                    ],
                    "title": "Daily Digest/House of Representatives; Congressional Record Vol. 167, No. 21"
                },
                {
                    "endPage": "D92",
                    "startPage": "D92",
                    "text": [
                        {
                            "type": "Formatted Text",
                            "url": "https://www.congress.gov/117/crec/2021/02/04/167/21/modified/CREC-2021-02-04-pt1-PgD92.htm"
                        },
                        {
                            "type": "PDF",
                            "url": "https://www.congress.gov/117/crec/2021/02/04/167/21/CREC-2021-02-04-pt1-PgD92.pdf"
                        },
                        {
                            "type": "Formatted Text",
                            "url": "https://www.congress.gov/117/crec/2021/02/04/167/21/modified/CREC-2021-02-04-pt2-PgD92.htm"
                        },
                        {
                            "type": "PDF",
                            "url": "https://www.congress.gov/117/crec/2021/02/04/167/21/CREC-2021-02-04-pt2-PgD92.pdf"
                        }
                    ],
                    "title": "Daily Digest/Senate Committee Meetings; Congressional Record Vol. 167, No. 21"
                },
                {
                    "endPage": "D92",
                    "startPage": "D89",
                    "text": [
                        {
                            "type": "Formatted Text",
                            "url": "https://www.congress.gov/117/crec/2021/02/04/167/21/modified/CREC-2021-02-04-pt1-PgD89.htm"
                        },
                        {
                            "type": "PDF",
                            "url": "https://www.congress.gov/117/crec/2021/02/04/167/21/CREC-2021-02-04-pt1-PgD89.pdf"
                        },
                        {
                            "type": "Formatted Text",
                            "url": "https://www.congress.gov/117/crec/2021/02/04/167/21/modified/CREC-2021-02-04-pt2-PgD89.htm"
                        },
                        {
                            "type": "PDF",
                            "url": "https://www.congress.gov/117/crec/2021/02/04/167/21/CREC-2021-02-04-pt2-PgD89.pdf"
                        }
                    ],
                    "title": "Daily Digest/Senate; Congressional Record Vol. 167, No. 21"
                }
            ]
        },
        {
            "name": "Extensions of Remarks Section",
            "sectionArticles": [
                {
                    "endPage": "E110",
                    "startPage": "E110",
                    "text": [
                        {
                            "type": "Formatted Text",
                            "url": "https://www.congress.gov/117/crec/2021/02/04/167/21/modified/CREC-2021-02-04-pt1-PgE110-3.htm"
                        },
                        {
                            "type": "PDF",
                            "url": "https://www.congress.gov/117/crec/2021/02/04/167/21/CREC-2021-02-04-pt1-PgE110-3.pdf"
                        }
                    ],
                    "title": "HONORING THE LIFE OF RICHARD S. PEPPER; Congressional Record Vol. 167, No. 21"
                },
                {
                    "endPage": "E110",
                    "startPage": "E110",
                    "text": [
                        {
                            "type": "Formatted Text",
                            "url": "https://www.congress.gov/117/crec/2021/02/04/167/21/modified/CREC-2021-02-04-pt1-PgE110-2.htm"
                        },
                        {
                            "type": "PDF",
                            "url": "https://www.congress.gov/117/crec/2021/02/04/167/21/CREC-2021-02-04-pt1-PgE110-2.pdf"
                        }
                    ],
                    "title": "HONORING THE RETIREMENT OF PEORIA POLICE CHIEF LOREN MARION III; Congressional Record Vol. 167, No. 21"
                },
                {
                    "endPage": "E110",
                    "startPage": "E110",
                    "text": [
                        {
                            "type": "PDF",
                            "url": "https://www.congress.gov/117/crec/2021/02/04/167/21/CREC-2021-02-04-pt1-PgE110.pdf"
                        },
                        {
                            "type": "Formatted Text",
                            "url": "https://www.congress.gov/117/crec/2021/02/04/167/21/modified/CREC-2021-02-04-pt1-PgE110.htm"
                        }
                    ],
                    "title": "TRIBUTE IN MEMORY OF BILL MARDIS; Congressional Record Vol. 167, No. 21"
                },
                {
                    "endPage": "E110",
                    "startPage": "E109",
                    "text": [
                        {
                            "type": "Formatted Text",
                            "url": "https://www.congress.gov/117/crec/2021/02/04/167/21/modified/CREC-2021-02-04-pt1-PgE109-5.htm"
                        },
                        {
                            "type": "PDF",
                            "url": "https://www.congress.gov/117/crec/2021/02/04/167/21/CREC-2021-02-04-pt1-PgE109-5.pdf"
                        }
                    ],
                    "title": "HONORING JOE LaROCCO; Congressional Record Vol. 167, No. 21"
                },
                {
                    "endPage": "E109",
                    "startPage": "E109",
                    "text": [
                        {
                            "type": "PDF",
                            "url": "https://www.congress.gov/117/crec/2021/02/04/167/21/CREC-2021-02-04-pt1-PgE109-4.pdf"
                        },
                        {
                            "type": "Formatted Text",
                            "url": "https://www.congress.gov/117/crec/2021/02/04/167/21/modified/CREC-2021-02-04-pt1-PgE109-4.htm"
                        }
                    ],
                    "title": "HONORING VETERANS DURING NATIONAL SALUTE WEEK; Congressional Record Vol. 167, No. 21"
                },
                {
                    "endPage": "E109",
                    "startPage": "E109",
                    "text": [
                        {
                            "type": "Formatted Text",
                            "url": "https://www.congress.gov/117/crec/2021/02/04/167/21/modified/CREC-2021-02-04-pt1-PgE109-3.htm"
                        },
                        {
                            "type": "PDF",
                            "url": "https://www.congress.gov/117/crec/2021/02/04/167/21/CREC-2021-02-04-pt1-PgE109-3.pdf"
                        }
                    ],
                    "title": "MR. AND MRS. ORESTUS AND GERALDINE FLOWERS; Congressional Record Vol. 167, No. 21"
                },
                {
                    "endPage": "E109",
                    "startPage": "E109",
                    "text": [
                        {
                            "type": "Formatted Text",
                            "url": "https://www.congress.gov/117/crec/2021/02/04/167/21/modified/CREC-2021-02-04-pt1-PgE109-2.htm"
                        },
                        {
                            "type": "PDF",
                            "url": "https://www.congress.gov/117/crec/2021/02/04/167/21/CREC-2021-02-04-pt1-PgE109-2.pdf"
                        }
                    ],
                    "title": "RECOGNIZING CAREN COWAN; Congressional Record Vol. 167, No. 21"
                }
            ]
        }
    ],
    "pagination": {
        "count": 544,
        "next": "https://v3/daily-congressional-record/167/21/articles?volumeNumber=167&issueNumber=21&offset=20&limit=20&format=json"
    },
    "request": {
        "contentType": "application/json",
        "format": "json",
        "issueNumber": "21",
        "volumeNumber": "167"
    }
}
