{
    "committeeMeetings": [
        {
            "chamber": "House",
            "congress": 115,
            "eventId": "105481",
            "updateDate": "2019-01-17 16:03:53+00:00",
            "url": "https://api.congress.gov/v3/committee-meeting/115/house/105481?format=json"
        },
        {
            "chamber": "House",
            "congress": 115,
            "eventId": "105482",
            "updateDate": "2019-01-17 16:03:56+00:00",
            "url": "https://api.congress.gov/v3/committee-meeting/115/house/105482?format=json"
        },
        {
            "chamber": "House",
            "congress": 115,
            "eventId": "105483",
            "updateDate": "2019-01-17 16:03:56+00:00",
            "url": "https://api.congress.gov/v3/committee-meeting/115/house/105483?format=json"
        },
        {
            "chamber": "House",
            "congress": 115,
            "eventId": "105490",
            "updateDate": "2020-09-14 12:01:08+00:00",
            "url": "https://api.congress.gov/v3/committee-meeting/115/house/105490?format=json"
        },
        {
            "chamber": "House",
            "congress": 115,
            "eventId": "105495",
            "updateDate": "2019-01-17 16:04:03+00:00",
            "url": "https://api.congress.gov/v3/committee-meeting/115/house/105495?format=json"
        },
        {
            "chamber": "House",
            "congress": 115,
            "eventId": "105496",
            "updateDate": "2019-01-17 16:04:06+00:00",
            "url": "https://api.congress.gov/v3/committee-meeting/115/house/105496?format=json"
        },
        {
            "chamber": "House",
            "congress": 115,
            "eventId": "105497",
            "updateDate": "2019-01-17 16:04:10+00:00",
            "url": "https://api.congress.gov/v3/committee-meeting/115/house/105497?format=json"
        },
        {
            "chamber": "House",
            "congress": 115,
            "eventId": "105498",
            "updateDate": "2019-01-17 16:04:16+00:00",
            "url": "https://api.congress.gov/v3/committee-meeting/115/house/105498?format=json"
        },
        {
            "chamber": "House",
            "congress": 115,
            "eventId": "105500",
            "updateDate": "2019-01-17 16:04:17+00:00",
            "url": "https://api.congress.gov/v3/committee-meeting/115/house/105500?format=json"
        },
        {
            "chamber": "House",
            "congress": 115,
            "eventId": "105501",
            "updateDate": "2019-01-17 16:04:18+00:00",
            "url": "https://api.congress.gov/v3/committee-meeting/115/house/105501?format=json"
        },
        {
            "chamber": "House",
            "congress": 115,
            "eventId": "105504",
            "updateDate": "2019-01-17 16:04:20+00:00",
            "url": "https://api.congress.gov/v3/committee-meeting/115/house/105504?format=json"
        },
        {
            "chamber": "House",
            "congress": 115,
            "eventId": "105526",
            "updateDate": "2019-01-17 16:04:47+00:00",
            "url": "https://api.congress.gov/v3/committee-meeting/115/house/105526?format=json"
        },
        {
            "chamber": "House",
            "congress": 115,
            "eventId": "105527",
            "updateDate": "2019-01-17 16:04:50+00:00",
            "url": "https://api.congress.gov/v3/committee-meeting/115/house/105527?format=json"
        },
        {
            "chamber": "House",
            "congress": 115,
            "eventId": "105528",
            "updateDate": "2019-01-17 16:04:53+00:00",
            "url": "https://api.congress.gov/v3/committee-meeting/115/house/105528?format=json"
        },
        {
            "chamber": "House",
            "congress": 115,
            "eventId": "105491",
            "updateDate": "2020-09-14 12:01:10+00:00",
            "url": "https://api.congress.gov/v3/committee-meeting/115/house/105491?format=json"
        },
        {
            "chamber": "House",
            "congress": 115,
            "eventId": "105492",
            "updateDate": "2020-09-14 12:01:12+00:00",
            "url": "https://api.congress.gov/v3/committee-meeting/115/house/105492?format=json"
        },
        {
            "chamber": "House",
            "congress": 115,
            "eventId": "105494",
            "updateDate": "2020-09-14 12:01:16+00:00",
            "url": "https://api.congress.gov/v3/committee-meeting/115/house/105494?format=json"
        },
        {
            "chamber": "House",
            "congress": 115,
            "eventId": "105529",
            "updateDate": "2020-09-14 12:01:41+00:00",
            "url": "https://api.congress.gov/v3/committee-meeting/115/house/105529?format=json"
        },
        {
            "chamber": "House",
            "congress": 115,
            "eventId": "105530",
            "updateDate": "2020-09-14 12:01:45+00:00",
            "url": "https://api.congress.gov/v3/committee-meeting/115/house/105530?format=json"
        },
        {
            "chamber": "House",
            "congress": 115,
            "eventId": "105531",
            "updateDate": "2020-09-14 12:01:46+00:00",
            "url": "https://api.congress.gov/v3/committee-meeting/115/house/105531?format=json"
        }
    ],
    "pagination": {
        "count": 11609,
        "next": "https://api.congress.gov/v3/committee-meeting?offset=20&limit=20&format=json"
    },
    "request": {
        "contentType": "application/json",
        "format": "json"
    }
}
