{
    "boundCongressionalRecord": [
        {
            "congress": 109,
            "date": "2005-06-20",
            "sessionNumber": 1,
            "updateDate": "2020-04-08",
            "url": "https://api.congress.gov/v3/bound-congressional-record/2005/6/20?format=json",
            "volumeNumber": 151
        },
        {
            "congress": 106,
            "date": "1999-07-01",
            "sessionNumber": 1,
            "updateDate": "2020-04-08",
            "url": "https://api.congress.gov/v3/bound-congressional-record/1999/7/1?format=json",
            "volumeNumber": 145
        },
        {
            "congress": 109,
            "date": "2005-06-21",
            "sessionNumber": 1,
            "updateDate": "2020-04-08",
            "url": "https://api.congress.gov/v3/bound-congressional-record/2005/6/21?format=json",
            "volumeNumber": 151
        },
        {
            "congress": 106,
            "date": "2000-06-13",
            "sessionNumber": 2,
            "updateDate": "2020-04-12",
            "url": "https://api.congress.gov/v3/bound-congressional-record/2000/6/13?format=json",
            "volumeNumber": 146
        },
        {
            "congress": 106,
            "date": "2000-06-13",
            "sessionNumber": 2,
            "updateDate": "2020-04-12",
            "url": "https://api.congress.gov/v3/bound-congressional-record/2000/6/13?format=json",
            "volumeNumber": 146
        },
        {
            "congress": 105,
            "date": "1997-05-21",
            "sessionNumber": 1,
            "updateDate": "2020-04-12",
            "url": "https://api.congress.gov/v3/bound-congressional-record/1997/5/21?format=json",
            "volumeNumber": 143
        },
        {
            "congress": 105,
            "date": "1997-05-21",
            "sessionNumber": 1,
            "updateDate": "2020-04-12",
            "url": "https://api.congress.gov/v3/bound-congressional-record/1997/5/21?format=json",
            "volumeNumber": 143
        },
        {
            "congress": 105,
            "date": "1997-04-22",
            "sessionNumber": 1,
            "updateDate": "2020-04-12",
            "url": "https://api.congress.gov/v3/bound-congressional-record/1997/4/22?format=json",
            "volumeNumber": 143
        },
        {
            "congress": 105,
            "date": "1997-04-22",
            "sessionNumber": 1,
            "updateDate": "2020-04-12",
            "url": "https://api.congress.gov/v3/bound-congressional-record/1997/4/22?format=json",
            "volumeNumber": 143
        },
        {
            "congress": 108,
            "date": "2004-06-17",
            "sessionNumber": 2,
            "updateDate": "2020-04-09",
            "url": "https://api.congress.gov/v3/bound-congressional-record/2004/6/17?format=json",
            "volumeNumber": 150
        },
        {
            "congress": 106,
            "date": "1999-01-19",
            "sessionNumber": 1,
            "updateDate": "2020-04-08",
            "url": "https://api.congress.gov/v3/bound-congressional-record/1999/1/19?format=json",
            "volumeNumber": 145
        },
        {
            "congress": 107,
            "date": "2002-01-23",
            "sessionNumber": 2,
            "updateDate": "2020-04-09",
            "url": "https://api.congress.gov/v3/bound-congressional-record/2002/1/23?format=json",
            "volumeNumber": 148
        },
        {
            "congress": 107,
            "date": "2002-01-23",
            "sessionNumber": 2,
            "updateDate": "2020-04-09",
            "url": "https://api.congress.gov/v3/bound-congressional-record/2002/1/23?format=json",
            "volumeNumber": 148
        },
        {
            "congress": 106,
            "date": "1999-01-29",
            "sessionNumber": 1,
            "updateDate": "2020-04-08",
            "url": "https://api.congress.gov/v3/bound-congressional-record/1999/1/29?format=json",
            "volumeNumber": 145
        },
        {
            "congress": 105,
            "date": "1998-06-02",
            "sessionNumber": 2,
            "updateDate": "2020-04-12",
            "url": "https://api.congress.gov/v3/bound-congressional-record/1998/6/2?format=json",
            "volumeNumber": 144
        },
        {
            "congress": 105,
            "date": "1998-06-02",
            "sessionNumber": 2,
            "updateDate": "2020-04-12",
            "url": "https://api.congress.gov/v3/bound-congressional-record/1998/6/2?format=json",
            "volumeNumber": 144
        },
        {
            "congress": 105,
            "date": "1998-06-02",
            "sessionNumber": 2,
            "updateDate": "2020-04-12",
            "url": "https://api.congress.gov/v3/bound-congressional-record/1998/6/2?format=json",
            "volumeNumber": 144
        },
        {
            "congress": 105,
            "date": "1998-06-02",
            "sessionNumber": 2,
            "updateDate": "2020-04-12",
            "url": "https://api.congress.gov/v3/bound-congressional-record/1998/6/2?format=json",
            "volumeNumber": 144
        },
        {
            "congress": 105,
            "date": "1997-03-20",
            "sessionNumber": 1,
            "updateDate": "2020-04-12",
            "url": "https://api.congress.gov/v3/bound-congressional-record/1997/3/20?format=json",
            "volumeNumber": 143
        },
        {
            "congress": 105,
            "date": "1997-03-20",
            "sessionNumber": 1,
            "updateDate": "2020-04-12",
            "url": "https://api.congress.gov/v3/bound-congressional-record/1997/3/20?format=json",
            "volumeNumber": 143
        }
    ],
    "pagination": {
        "count": 86788,
        "next": "https://api.congress.gov/v3/bound-congressional-record?offset=20&limit=20&format=json"
    },
    "request": {
        "contentType": "application/json",
        "format": "json"
    }
}
