{
    "members": [
        {
            "bioguideId": "C001078",
            "depiction": {
                "attribution": "Image courtesy of the Member",
                "imageUrl": "https://www.congress.gov/img/member/c001078_200.jpg"
            },
            "district": 11,
            "name": "Connolly, Gerald E.",
            "partyName": "Democratic",
            "state": "Virginia",
            "terms": {
                "item": [
                    {
                        "chamber": "House of Representatives",
                        "endYear": 2025,
                        "startYear": 2009
                    }
                ]
            },
            "updateDate": "2025-05-21T13:36:20Z",
            "url": "https://v3/member/C001078?format=json"
        },
        {
            "bioguideId": "H001085",
            "depiction": {
                "attribution": "Image courtesy of the Member",
                "imageUrl": "https://www.congress.gov/img/member/681bc0e6b763f94d6e471f50_200.jpg"
            },
            "district": 6,
            "name": "Houlahan, Chrissy",
            "partyName": "Democratic",
            "state": "Pennsylvania",
            "terms": {
                "item": [
                    {
                        "chamber": "House of Representatives",
                        "startYear": 2019
                    }
                ]
            },
            "updateDate": "2025-05-08T13:36:39Z",
            "url": "https://v3/member/H001085?format=json"
        },
        {
            "bioguideId": "J000299",
            "depiction": {
                "attribution": "Image courtesy of the Member",
                "imageUrl": "https://www.congress.gov/img/member/67ffcb2af22eaf56065817c4_200.jpg"
            },
            "district": 4,
            "name": "Johnson, Mike",
            "partyName": "Republican",
            "state": "Louisiana",
            "terms": {
                "item": [
                    {
                        "chamber": "House of Representatives",
                        "startYear": 2017
                    }
                ]
            },
            "updateDate": "2025-04-28T13:05:21Z",
            "url": "https://v3/member/J000299?format=json"
        },
        {
            "bioguideId": "S001159",
            "depiction": {
                "attribution": "Image courtesy of the Member",
                "imageUrl": "https://www.congress.gov/img/member/s001159_200.jpg"
            },
            "district": 10,
            "name": "Strickland, Marilyn",
            "partyName": "Democratic",
            "state": "Washington",
            "terms": {
                "item": [
                    {
                        "chamber": "House of Representatives",
                        "startYear": 2021
                    }
                ]
            },
            "updateDate": "2025-04-28T13:04:28Z",
            "url": "https://v3/member/S001159?format=json"
        },
        {
            "bioguideId": "F000471",
            "depiction": {
                "attribution": "Image courtesy of the Member",
                "imageUrl": "https://www.congress.gov/img/member/f000471_200.jpg"
            },
            "district": 5,
            "name": "Fitzgerald, Scott",
            "partyName": "Republican",
            "state": "Wisconsin",
            "terms": {
                "item": [
                    {
                        "chamber": "House of Representatives",
                        "startYear": 2021
                    }
                ]
            },
            "updateDate": "2025-04-28T13:04:28Z",
            "url": "https://v3/member/F000471?format=json"
        },
        {
            "bioguideId": "T000165",
            "depiction": {
                "attribution": "Image courtesy of the Member",
                "imageUrl": "https://www.congress.gov/img/member/t000165_200.jpg"
            },
            "district": 7,
            "name": "Tiffany, Thomas P.",
            "partyName": "Republican",
            "state": "Wisconsin",
            "terms": {
                "item": [
                    {
                        "chamber": "House of Representatives",
                        "startYear": 2020
                    }
                ]
            },
            "updateDate": "2025-04-28T13:04:28Z",
            "url": "https://v3/member/T000165?format=json"
        },
        {
            "bioguideId": "M001205",
            "depiction": {
                "attribution": "Image courtesy of the Member",
                "imageUrl": "https://www.congress.gov/img/member/m001205_200.jpg"
            },
            "district": 3,
            "name": "Miller, Carol D.",
            "partyName": "Republican",
            "state": "West Virginia",
            "terms": {
                "item": [
                    {
                        "chamber": "House of Representatives",
                        "startYear": 2019
                    }
                ]
            },
            "updateDate": "2025-04-28T13:04:28Z",
            "url": "https://v3/member/M001205?format=json"
        },
        {
            "bioguideId": "S001213",
            "depiction": {
                "attribution": "Image courtesy of the Member",
                "imageUrl": "https://www.congress.gov/img/member/s001213_200.jpg"
            },
            "district": 1,
            "name": "Steil, Bryan",
            "partyName": "Republican",
            "state": "Wisconsin",
            "terms": {
                "item": [
                    {
                        "chamber": "House of Representatives",
                        "startYear": 2019
                    }
                ]
            },
            "updateDate": "2025-04-28T13:04:28Z",
            "url": "https://v3/member/S001213?format=json"
        },
        {
            "bioguideId": "S001216",
            "depiction": {
                "attribution": "Image courtesy of the Member",
                "imageUrl": "https://www.congress.gov/img/member/s001216_200.jpg"
            },
            "district": 8,
            "name": "Schrier, Kim",
            "partyName": "Democratic",
            "state": "Washington",
            "terms": {
                "item": [
                    {
                        "chamber": "House of Representatives",
                        "startYear": 2019
                    }
                ]
            },
            "updateDate": "2025-04-28T13:04:28Z",
            "url": "https://v3/member/S001216?format=json"
        },
        {
            "bioguideId": "J000298",
            "depiction": {
                "attribution": "Congressional Pictorial Directory",
                "imageUrl": "https://www.congress.gov/img/member/116_rp_wa_7_jayapal_pramila_200.jpg"
            },
            "district": 7,
            "name": "Jayapal, Pramila",
            "partyName": "Democratic",
            "state": "Washington",
            "terms": {
                "item": [
                    {
                        "chamber": "House of Representatives",
                        "startYear": 2017
                    }
                ]
            },
            "updateDate": "2025-04-28T13:04:28Z",
            "url": "https://v3/member/J000298?format=json"
        },
        {
            "bioguideId": "G000576",
            "depiction": {
                "attribution": "Congressional Pictorial Directory",
                "imageUrl": "https://www.congress.gov/img/member/116_rp_wi_6_grothman_glenn_200.jpg"
            },
            "district": 6,
            "name": "Grothman, Glenn",
            "partyName": "Republican",
            "state": "Wisconsin",
            "terms": {
                "item": [
                    {
                        "chamber": "House of Representatives",
                        "startYear": 2015
                    }
                ]
            },
            "updateDate": "2025-04-28T13:04:28Z",
            "url": "https://v3/member/G000576?format=json"
        },
        {
            "bioguideId": "N000189",
            "depiction": {
                "attribution": "Congressional Pictorial Directory",
                "imageUrl": "https://www.congress.gov/img/member/116_rp_wa_4_newhouse_dan_200.jpg"
            },
            "district": 4,
            "name": "Newhouse, Dan",
            "partyName": "Republican",
            "state": "Washington",
            "terms": {
                "item": [
                    {
                        "chamber": "House of Representatives",
                        "startYear": 2015
                    }
                ]
            },
            "updateDate": "2025-04-28T13:04:28Z",
            "url": "https://v3/member/N000189?format=json"
        },
        {
            "bioguideId": "P000610",
            "depiction": {
                "attribution": "Congressional Pictorial Directory",
                "imageUrl": "https://www.congress.gov/img/member/116_dg_vi_plaskett_stacey_200.jpg"
            },
            "district": 0,
            "name": "Plaskett, Stacey E.",
            "partyName": "Democratic",
            "state": "Virgin Islands",
            "terms": {
                "item": [
                    {
                        "chamber": "House of Representatives",
                        "startYear": 2015
                    }
                ]
            },
            "updateDate": "2025-04-28T13:04:28Z",
            "url": "https://v3/member/P000610?format=json"
        },
        {
            "bioguideId": "P000607",
            "depiction": {
                "attribution": "Image courtesy of the Member",
                "imageUrl": "https://www.congress.gov/img/member/p000607_200.jpg"
            },
            "district": 2,
            "name": "Pocan, Mark",
            "partyName": "Democratic",
            "state": "Wisconsin",
            "terms": {
                "item": [
                    {
                        "chamber": "House of Representatives",
                        "startYear": 2013
                    }
                ]
            },
            "updateDate": "2025-04-28T13:04:28Z",
            "url": "https://v3/member/P000607?format=json"
        },
        {
            "bioguideId": "D000617",
            "depiction": {
                "attribution": "Image courtesy of the Member",
                "imageUrl": "https://www.congress.gov/img/member/d000617_200.jpg"
            },
            "district": 1,
            "name": "DelBene, Suzan K.",
            "partyName": "Democratic",
            "state": "Washington",
            "terms": {
                "item": [
                    {
                        "chamber": "House of Representatives",
                        "startYear": 2012
                    }
                ]
            },
            "updateDate": "2025-04-28T13:04:28Z",
            "url": "https://v3/member/D000617?format=json"
        },
        {
            "bioguideId": "S000510",
            "depiction": {
                "attribution": "Congressional Pictorial Directory",
                "imageUrl": "https://www.congress.gov/img/member/116_rp_wa_9_smith_adam_200.jpg"
            },
            "district": 9,
            "name": "Smith, Adam",
            "partyName": "Democratic",
            "state": "Washington",
            "terms": {
                "item": [
                    {
                        "chamber": "House of Representatives",
                        "startYear": 1997
                    }
                ]
            },
            "updateDate": "2025-04-28T13:04:28Z",
            "url": "https://v3/member/S000510?format=json"
        },
        {
            "bioguideId": "M001160",
            "depiction": {
                "attribution": "Congressional Pictorial Directory",
                "imageUrl": "https://www.congress.gov/img/member/116_rp_wi_4_moore_gwen_200.jpg"
            },
            "district": 4,
            "name": "Moore, Gwen",
            "partyName": "Democratic",
            "state": "Wisconsin",
            "terms": {
                "item": [
                    {
                        "chamber": "House of Representatives",
                        "startYear": 2005
                    }
                ]
            },
            "updateDate": "2025-04-28T13:04:28Z",
            "url": "https://v3/member/M001160?format=json"
        },
        {
            "bioguideId": "L000560",
            "depiction": {
                "attribution": "Congressional Pictorial Directory",
                "imageUrl": "https://www.congress.gov/img/member/116_rp_wa_2_larsen_rick_200.jpg"
            },
            "district": 2,
            "name": "Larsen, Rick",
            "partyName": "Democratic",
            "state": "Washington",
            "terms": {
                "item": [
                    {
                        "chamber": "House of Representatives",
                        "startYear": 2001
                    }
                ]
            },
            "updateDate": "2025-04-28T13:04:28Z",
            "url": "https://v3/member/L000560?format=json"
        },
        {
            "bioguideId": "V000134",
            "depiction": {
                "attribution": "Image courtesy of the Member",
                "imageUrl": "https://www.congress.gov/img/member/677461060b34857ecc9091af_200.jpg"
            },
            "district": 24,
            "name": "Van Duyne, Beth",
            "partyName": "Republican",
            "state": "Texas",
            "terms": {
                "item": [
                    {
                        "chamber": "House of Representatives",
                        "startYear": 2021
                    }
                ]
            },
            "updateDate": "2025-04-28T13:04:27Z",
            "url": "https://v3/member/V000134?format=json"
        },
        {
            "bioguideId": "O000086",
            "depiction": {
                "attribution": "Image courtesy of the Member",
                "imageUrl": "https://www.congress.gov/img/member/o000086_200.jpg"
            },
            "district": 4,
            "name": "Owens, Burgess",
            "partyName": "Republican",
            "state": "Utah",
            "terms": {
                "item": [
                    {
                        "chamber": "House of Representatives",
                        "startYear": 2021
                    }
                ]
            },
            "updateDate": "2025-04-28T13:04:27Z",
            "url": "https://v3/member/O000086?format=json"
        }
    ],
    "pagination": {
        "count": 557,
        "next": "https://v3/member/congress/117?currentMember=FALSE&offset=20&limit=20&format=json"
    },
    "request": {
        "contentType": "application/json",
        "format": "json"
    }
}
